%YAML 1.1
%TAG !u! tag:unity3d.com,2011:
--- !u!1001 &451322109090006841
PrefabInstance:
  m_ObjectHideFlags: 0
  serializedVersion: 2
  m_Modification:
    m_TransformParent: {fileID: 0}
    m_Modifications:
    - target: {fileID: 621920374941326516, guid: 4721c852dc06cec47bb43a1224915511, type: 3}
      propertyPath: m_IsActive
      value: 0
      objectReference: {fileID: 0}
    - target: {fileID: 2429136948111500291, guid: 4721c852dc06cec47bb43a1224915511, type: 3}
      propertyPath: m_IsActive
      value: 0
      objectReference: {fileID: 0}
    - target: {fileID: 5707927029211597927, guid: 4721c852dc06cec47bb43a1224915511, type: 3}
      propertyPath: m_LocalPosition.x
      value: 9
      objectReference: {fileID: 0}
    - target: {fileID: 5707927029211597927, guid: 4721c852dc06cec47bb43a1224915511, type: 3}
      propertyPath: m_LocalScale.x
      value: 12
      objectReference: {fileID: 0}
    - target: {fileID: 5707927029598645418, guid: 4721c852dc06cec47bb43a1224915511, type: 3}
      propertyPath: m_LocalScale.y
      value: 10
      objectReference: {fileID: 0}
    - target: {fileID: 5707927029769855714, guid: 4721c852dc06cec47bb43a1224915511, type: 3}
      propertyPath: m_LocalPosition.x
      value: 0
      objectReference: {fileID: 0}
    - target: {fileID: 5707927029769855714, guid: 4721c852dc06cec47bb43a1224915511, type: 3}
      propertyPath: m_LocalPosition.y
      value: 0
      objectReference: {fileID: 0}
    - target: {fileID: 5707927029769855714, guid: 4721c852dc06cec47bb43a1224915511, type: 3}
      propertyPath: m_LocalPosition.z
      value: 0
      objectReference: {fileID: 0}
    - target: {fileID: 5707927029769855714, guid: 4721c852dc06cec47bb43a1224915511, type: 3}
      propertyPath: m_LocalRotation.x
      value: 0
      objectReference: {fileID: 0}
    - target: {fileID: 5707927029769855714, guid: 4721c852dc06cec47bb43a1224915511, type: 3}
      propertyPath: m_LocalRotation.y
      value: 0
      objectReference: {fileID: 0}
    - target: {fileID: 5707927029769855714, guid: 4721c852dc06cec47bb43a1224915511, type: 3}
      propertyPath: m_LocalRotation.z
      value: 0
      objectReference: {fileID: 0}
    - target: {fileID: 5707927029769855714, guid: 4721c852dc06cec47bb43a1224915511, type: 3}
      propertyPath: m_LocalRotation.w
      value: 1
      objectReference: {fileID: 0}
    - target: {fileID: 5707927029769855714, guid: 4721c852dc06cec47bb43a1224915511, type: 3}
      propertyPath: m_RootOrder
      value: 0
      objectReference: {fileID: 0}
    - target: {fileID: 5707927029769855714, guid: 4721c852dc06cec47bb43a1224915511, type: 3}
      propertyPath: m_LocalEulerAnglesHint.x
      value: 0
      objectReference: {fileID: 0}
    - target: {fileID: 5707927029769855714, guid: 4721c852dc06cec47bb43a1224915511, type: 3}
      propertyPath: m_LocalEulerAnglesHint.y
      value: 0
      objectReference: {fileID: 0}
    - target: {fileID: 5707927029769855714, guid: 4721c852dc06cec47bb43a1224915511, type: 3}
      propertyPath: m_LocalEulerAnglesHint.z
      value: 0
      objectReference: {fileID: 0}
    - target: {fileID: 5707927029769855715, guid: 4721c852dc06cec47bb43a1224915511, type: 3}
      propertyPath: m_Name
      value: RoomD
      objectReference: {fileID: 0}
    - target: {fileID: 5707927030209422372, guid: 4721c852dc06cec47bb43a1224915511, type: 3}
      propertyPath: m_LocalScale.y
      value: 10
      objectReference: {fileID: 0}
    - target: {fileID: 5707927030506458342, guid: 4721c852dc06cec47bb43a1224915511, type: 3}
      propertyPath: m_LocalPosition.x
      value: 9
      objectReference: {fileID: 0}
    - target: {fileID: 5707927030506458342, guid: 4721c852dc06cec47bb43a1224915511, type: 3}
      propertyPath: m_LocalScale.x
      value: 10.8
      objectReference: {fileID: 0}
    - target: {fileID: 8753427712859535083, guid: 4721c852dc06cec47bb43a1224915511, type: 3}
      propertyPath: m_IsActive
      value: 0
      objectReference: {fileID: 0}
    m_RemovedComponents: []
  m_SourcePrefab: {fileID: 100100000, guid: 4721c852dc06cec47bb43a1224915511, type: 3}
