%YAML 1.1
%TAG !u! tag:unity3d.com,2011:
--- !u!114 &11400000
MonoBehaviour:
  m_ObjectHideFlags: 0
  m_CorrespondingSourceObject: {fileID: 0}
  m_PrefabInstance: {fileID: 0}
  m_PrefabAsset: {fileID: 0}
  m_GameObject: {fileID: 0}
  m_Enabled: 1
  m_EditorHideFlags: 0
  m_Script: {fileID: -1893448595, guid: a040fb66244a7f54289914d98ea4ef7d, type: 3}
  m_Name: GapCloser
  m_EditorClassIdentifier: 
  _data:
    _json: '{"graph":{"variables":{"collection":{"$content":[],"$version":"A"},"$version":"A"},"controlInputDefinitions":[],"controlOutputDefinitions":[],"valueInputDefinitions":[],"valueOutputDefinitions":[],"title":null,"summary":null,"pan":{"x":922.8649,"y":449.0126},"zoom":1.0,"elements":[{"coroutine":false,"defaultValues":{},"position":{"x":-204.0,"y":-144.0},"guid":"7ddd3292-82c6-45fa-9282-d8f115b543c0","$version":"A","$type":"Bolt.Start","$id":"9"},{"type":"System.Single","value":{"$content":25.0,"$type":"System.Single"},"defaultValues":{},"position":{"x":551.0,"y":380.0},"guid":"e7d5d571-e8ea-42c5-9855-bfc5f83f88a7","$version":"A","$type":"Bolt.Literal","$id":"11"},{"type":"UnityEngine.Vector3","value":{"x":1.0,"y":0.0,"z":0.0,"$type":"UnityEngine.Vector3"},"defaultValues":{},"position":{"x":423.0,"y":379.0},"guid":"7b455cbe-bfbb-4e44-8965-866cb61b15bc","$version":"A","$type":"Bolt.Literal","$id":"13"},{"nest":{"source":"Embed","macro":null,"embed":{"variables":{"collection":{"$content":[],"$version":"A"},"$version":"A"},"controlInputDefinitions":[{"key":"In","label":null,"summary":null,"hideLabel":false}],"controlOutputDefinitions":[{"key":"Out","label":null,"summary":null,"hideLabel":false}],"valueInputDefinitions":[{"hasDefaultValue":false,"defaultValue":{"x":0.0,"y":0.0,"z":0.0,"$type":"UnityEngine.Vector3"},"_type":"UnityEngine.Vector3","key":"Direction","label":"Raycast
      Direction","summary":null,"hideLabel":false},{"hasDefaultValue":false,"defaultValue":{"$content":0.0,"$type":"System.Single"},"_type":"System.Single","key":"MaxDistance","label":"RaycastMaxDistance","summary":null,"hideLabel":false},{"hasDefaultValue":false,"defaultValue":null,"_type":"System.String","key":"Var
      Name","label":"Closer Name","summary":null,"hideLabel":false}],"valueOutputDefinitions":[],"title":null,"summary":null,"pan":{"x":-82.63367,"y":182.0},"zoom":1.0,"elements":[{"defaultValues":{},"position":{"x":-632.0,"y":55.0},"guid":"b233fdd7-1e5b-43f8-b83d-9414916abc05","$version":"A","$type":"Bolt.GraphInput","$id":"30"},{"defaultValues":{},"position":{"x":642.0,"y":40.0},"guid":"10531f6b-7fbb-4250-8bbf-abf5b99293f0","$version":"A","$type":"Bolt.GraphOutput","$id":"32"},{"specifyFallback":false,"kind":"Object","defaultValues":{"name":{"$content":"Top","$type":"System.String"},"object":null},"position":{"x":152.0,"y":110.0},"guid":"53e7e7ff-e7b7-48ee-bd50-873607d6e878","$version":"A","$type":"Bolt.GetVariable","$id":"34"},{"chainable":false,"member":{"name":"SetActive","parameterTypes":["System.Boolean"],"targetType":"UnityEngine.GameObject","targetTypeName":"UnityEngine.GameObject","$version":"A"},"defaultValues":{"target":null,"%value":{"$content":false,"$type":"System.Boolean"}},"position":{"x":336.0,"y":36.0},"guid":"5c8db47b-10f8-46f8-aabc-46030442e26b","$version":"A","$type":"Bolt.InvokeMember","$id":"36"},{"type":"UnityEngine.LayerMask","value":{"value":4096,"$type":"UnityEngine.LayerMask"},"defaultValues":{},"position":{"x":-389.0,"y":338.0},"guid":"3bcb17a7-d58f-47a1-8866-af6b8365c53b","$version":"A","$type":"Bolt.Literal","$id":"39"},{"defaultValues":{},"position":{"x":186.0,"y":222.0},"guid":"88ae8c67-0bee-40d5-9dd4-7e516b76d961","$version":"A","$type":"Bolt.Negate","$id":"41"},{"chainable":false,"member":{"name":"Raycast","parameterTypes":["UnityEngine.Vector3","UnityEngine.Vector3","System.Single","System.Int32"],"targetType":"UnityEngine.Physics","targetTypeName":"UnityEngine.Physics","$version":"A"},"defaultValues":{"%origin":{"x":0.0,"y":0.0,"z":0.0,"$type":"UnityEngine.Vector3"},"%direction":{"x":0.0,"y":1.0,"z":0.0,"$type":"UnityEngine.Vector3"},"%maxDistance":{"$content":25.0,"$type":"System.Single"},"%layerMask":{"$content":0,"$type":"System.Int32"}},"position":{"x":-114.0,"y":36.0},"guid":"d8632f42-dcb7-4aee-869b-2c754c914150","$version":"A","$type":"Bolt.InvokeMember","$id":"43"},{"member":{"name":"position","parameterTypes":null,"targetType":"UnityEngine.Transform","targetTypeName":"UnityEngine.Transform","$version":"A"},"defaultValues":{"target":null},"position":{"x":-399.0,"y":246.0},"guid":"2594bca8-83c5-4d7e-97b2-5aa0bd69f81f","$version":"A","$type":"Bolt.GetMember","$id":"46"},{"sourceUnit":{"$ref":"30"},"sourceKey":"In","destinationUnit":{"$ref":"43"},"destinationKey":"enter","guid":"27d36d14-368d-4cbd-9122-abdaeefb1819","$type":"Bolt.ControlConnection"},{"sourceUnit":{"$ref":"43"},"sourceKey":"exit","destinationUnit":{"$ref":"36"},"destinationKey":"enter","guid":"981c2bdf-10f2-439d-899f-95912dd3c8a6","$type":"Bolt.ControlConnection"},{"sourceUnit":{"$ref":"36"},"sourceKey":"exit","destinationUnit":{"$ref":"32"},"destinationKey":"Out","guid":"9c394e28-019b-4dca-92a8-279de3578454","$type":"Bolt.ControlConnection"},{"sourceUnit":{"$ref":"41"},"sourceKey":"output","destinationUnit":{"$ref":"36"},"destinationKey":"%value","guid":"88786a66-6c6d-407e-8ba8-46222f6cd302","$type":"Bolt.ValueConnection"},{"sourceUnit":{"$ref":"30"},"sourceKey":"Direction","destinationUnit":{"$ref":"43"},"destinationKey":"%direction","guid":"cfdfbf91-b607-4d0e-9fda-e81845389780","$type":"Bolt.ValueConnection"},{"sourceUnit":{"$ref":"39"},"sourceKey":"output","destinationUnit":{"$ref":"43"},"destinationKey":"%layerMask","guid":"a307e475-e6e8-4ade-80f3-346de7924bd2","$type":"Bolt.ValueConnection"},{"sourceUnit":{"$ref":"43"},"sourceKey":"result","destinationUnit":{"$ref":"41"},"destinationKey":"input","guid":"80dc68de-f7c0-408a-b006-5111f44ae69a","$type":"Bolt.ValueConnection"},{"sourceUnit":{"$ref":"30"},"sourceKey":"MaxDistance","destinationUnit":{"$ref":"43"},"destinationKey":"%maxDistance","guid":"bfdc2ebb-f70a-4d93-9592-14d91f4f4cec","$type":"Bolt.ValueConnection"},{"sourceUnit":{"$ref":"46"},"sourceKey":"value","destinationUnit":{"$ref":"43"},"destinationKey":"%origin","guid":"6427d229-69f3-4567-a847-2d25edd4711e","$type":"Bolt.ValueConnection"},{"sourceUnit":{"$ref":"34"},"sourceKey":"value","destinationUnit":{"$ref":"36"},"destinationKey":"target","guid":"c48f658d-10c0-4e9a-b07d-9cf9052b4b6c","$type":"Bolt.ValueConnection"},{"sourceUnit":{"$ref":"30"},"sourceKey":"Var
      Name","destinationUnit":{"$ref":"34"},"destinationKey":"name","guid":"e755c98b-9e6a-4d0f-8a88-49038534c22c","$type":"Bolt.ValueConnection"}],"$version":"A"}},"defaultValues":{},"position":{"x":872.0,"y":315.0},"guid":"2144bf59-f4b7-4f69-b632-c2fde5299c90","$version":"A","$type":"Bolt.SuperUnit","$id":"15"},{"type":"System.String","value":{"$content":"Down","$type":"System.String"},"defaultValues":{},"position":{"x":653.0,"y":224.0},"guid":"aaf18356-d8ba-4654-8021-d01330ffa690","$version":"A","$type":"Bolt.Literal","$id":"61"},{"type":"System.Single","value":{"$content":25.0,"$type":"System.Single"},"defaultValues":{},"position":{"x":549.0,"y":224.0},"guid":"a663df9b-137f-4bee-9521-201a82b2b657","$version":"A","$type":"Bolt.Literal","$id":"63"},{"type":"UnityEngine.Vector3","value":{"x":0.0,"y":-1.0,"z":0.0,"$type":"UnityEngine.Vector3"},"defaultValues":{},"position":{"x":421.0,"y":223.0},"guid":"41730fdc-eece-419c-bfc9-59f2a8efb600","$version":"A","$type":"Bolt.Literal","$id":"65"},{"nest":{"source":"Embed","macro":null,"embed":{"variables":{"collection":{"$content":[],"$version":"A"},"$version":"A"},"controlInputDefinitions":[{"key":"In","label":null,"summary":null,"hideLabel":false}],"controlOutputDefinitions":[{"key":"Out","label":null,"summary":null,"hideLabel":false}],"valueInputDefinitions":[{"hasDefaultValue":false,"defaultValue":{"x":0.0,"y":0.0,"z":0.0,"$type":"UnityEngine.Vector3"},"_type":"UnityEngine.Vector3","key":"Direction","label":"Raycast
      Direction","summary":null,"hideLabel":false},{"hasDefaultValue":false,"defaultValue":{"$content":0.0,"$type":"System.Single"},"_type":"System.Single","key":"MaxDistance","label":"RaycastMaxDistance","summary":null,"hideLabel":false},{"hasDefaultValue":false,"defaultValue":null,"_type":"System.String","key":"Var
      Name","label":"Closer Name","summary":null,"hideLabel":false}],"valueOutputDefinitions":[],"title":null,"summary":null,"pan":{"x":-82.63367,"y":182.0},"zoom":1.0,"elements":[{"defaultValues":{},"position":{"x":-632.0,"y":55.0},"guid":"b233fdd7-1e5b-43f8-b83d-9414916abc05","$version":"A","$type":"Bolt.GraphInput","$id":"82"},{"defaultValues":{},"position":{"x":642.0,"y":40.0},"guid":"10531f6b-7fbb-4250-8bbf-abf5b99293f0","$version":"A","$type":"Bolt.GraphOutput","$id":"84"},{"specifyFallback":false,"kind":"Object","defaultValues":{"name":{"$content":"Top","$type":"System.String"},"object":null},"position":{"x":152.0,"y":110.0},"guid":"53e7e7ff-e7b7-48ee-bd50-873607d6e878","$version":"A","$type":"Bolt.GetVariable","$id":"86"},{"chainable":false,"member":{"name":"SetActive","parameterTypes":["System.Boolean"],"targetType":"UnityEngine.GameObject","targetTypeName":"UnityEngine.GameObject","$version":"A"},"defaultValues":{"target":null,"%value":{"$content":false,"$type":"System.Boolean"}},"position":{"x":336.0,"y":36.0},"guid":"5c8db47b-10f8-46f8-aabc-46030442e26b","$version":"A","$type":"Bolt.InvokeMember","$id":"88"},{"type":"UnityEngine.LayerMask","value":{"value":4096,"$type":"UnityEngine.LayerMask"},"defaultValues":{},"position":{"x":-389.0,"y":338.0},"guid":"3bcb17a7-d58f-47a1-8866-af6b8365c53b","$version":"A","$type":"Bolt.Literal","$id":"91"},{"defaultValues":{},"position":{"x":186.0,"y":222.0},"guid":"88ae8c67-0bee-40d5-9dd4-7e516b76d961","$version":"A","$type":"Bolt.Negate","$id":"93"},{"chainable":false,"member":{"name":"Raycast","parameterTypes":["UnityEngine.Vector3","UnityEngine.Vector3","System.Single","System.Int32"],"targetType":"UnityEngine.Physics","targetTypeName":"UnityEngine.Physics","$version":"A"},"defaultValues":{"%origin":{"x":0.0,"y":0.0,"z":0.0,"$type":"UnityEngine.Vector3"},"%direction":{"x":0.0,"y":1.0,"z":0.0,"$type":"UnityEngine.Vector3"},"%maxDistance":{"$content":25.0,"$type":"System.Single"},"%layerMask":{"$content":0,"$type":"System.Int32"}},"position":{"x":-114.0,"y":36.0},"guid":"d8632f42-dcb7-4aee-869b-2c754c914150","$version":"A","$type":"Bolt.InvokeMember","$id":"95"},{"member":{"name":"position","parameterTypes":null,"targetType":"UnityEngine.Transform","targetTypeName":"UnityEngine.Transform","$version":"A"},"defaultValues":{"target":null},"position":{"x":-399.0,"y":246.0},"guid":"2594bca8-83c5-4d7e-97b2-5aa0bd69f81f","$version":"A","$type":"Bolt.GetMember","$id":"98"},{"sourceUnit":{"$ref":"82"},"sourceKey":"In","destinationUnit":{"$ref":"95"},"destinationKey":"enter","guid":"27d36d14-368d-4cbd-9122-abdaeefb1819","$type":"Bolt.ControlConnection"},{"sourceUnit":{"$ref":"95"},"sourceKey":"exit","destinationUnit":{"$ref":"88"},"destinationKey":"enter","guid":"981c2bdf-10f2-439d-899f-95912dd3c8a6","$type":"Bolt.ControlConnection"},{"sourceUnit":{"$ref":"88"},"sourceKey":"exit","destinationUnit":{"$ref":"84"},"destinationKey":"Out","guid":"9c394e28-019b-4dca-92a8-279de3578454","$type":"Bolt.ControlConnection"},{"sourceUnit":{"$ref":"93"},"sourceKey":"output","destinationUnit":{"$ref":"88"},"destinationKey":"%value","guid":"88786a66-6c6d-407e-8ba8-46222f6cd302","$type":"Bolt.ValueConnection"},{"sourceUnit":{"$ref":"82"},"sourceKey":"Direction","destinationUnit":{"$ref":"95"},"destinationKey":"%direction","guid":"cfdfbf91-b607-4d0e-9fda-e81845389780","$type":"Bolt.ValueConnection"},{"sourceUnit":{"$ref":"91"},"sourceKey":"output","destinationUnit":{"$ref":"95"},"destinationKey":"%layerMask","guid":"a307e475-e6e8-4ade-80f3-346de7924bd2","$type":"Bolt.ValueConnection"},{"sourceUnit":{"$ref":"95"},"sourceKey":"result","destinationUnit":{"$ref":"93"},"destinationKey":"input","guid":"80dc68de-f7c0-408a-b006-5111f44ae69a","$type":"Bolt.ValueConnection"},{"sourceUnit":{"$ref":"82"},"sourceKey":"MaxDistance","destinationUnit":{"$ref":"95"},"destinationKey":"%maxDistance","guid":"bfdc2ebb-f70a-4d93-9592-14d91f4f4cec","$type":"Bolt.ValueConnection"},{"sourceUnit":{"$ref":"98"},"sourceKey":"value","destinationUnit":{"$ref":"95"},"destinationKey":"%origin","guid":"6427d229-69f3-4567-a847-2d25edd4711e","$type":"Bolt.ValueConnection"},{"sourceUnit":{"$ref":"86"},"sourceKey":"value","destinationUnit":{"$ref":"88"},"destinationKey":"target","guid":"c48f658d-10c0-4e9a-b07d-9cf9052b4b6c","$type":"Bolt.ValueConnection"},{"sourceUnit":{"$ref":"82"},"sourceKey":"Var
      Name","destinationUnit":{"$ref":"86"},"destinationKey":"name","guid":"e755c98b-9e6a-4d0f-8a88-49038534c22c","$type":"Bolt.ValueConnection"}],"$version":"A"}},"defaultValues":{},"position":{"x":870.0,"y":159.0},"guid":"fec6b790-ed38-4db7-83fb-d7bb6c81c976","$version":"A","$type":"Bolt.SuperUnit","$id":"67"},{"type":"System.String","value":{"$content":"Left","$type":"System.String"},"defaultValues":{},"position":{"x":651.0,"y":70.0},"guid":"128ccf02-ab96-4b13-a1b9-0c3f5350ff11","$version":"A","$type":"Bolt.Literal","$id":"113"},{"type":"System.String","value":{"$content":"Right","$type":"System.String"},"defaultValues":{},"position":{"x":655.0,"y":380.0},"guid":"7770dfd4-d332-499a-a5f1-2cb2dd389d21","$version":"A","$type":"Bolt.Literal","$id":"115"},{"type":"UnityEngine.Vector3","value":{"x":-1.0,"y":0.0,"z":0.0,"$type":"UnityEngine.Vector3"},"defaultValues":{},"position":{"x":419.0,"y":69.0},"guid":"eb2ca4af-4d26-4846-9df8-f0d9ab3b4a88","$version":"A","$type":"Bolt.Literal","$id":"117"},{"nest":{"source":"Embed","macro":null,"embed":{"variables":{"collection":{"$content":[],"$version":"A"},"$version":"A"},"controlInputDefinitions":[{"key":"In","label":null,"summary":null,"hideLabel":false}],"controlOutputDefinitions":[{"key":"Out","label":null,"summary":null,"hideLabel":false}],"valueInputDefinitions":[{"hasDefaultValue":false,"defaultValue":{"x":0.0,"y":0.0,"z":0.0,"$type":"UnityEngine.Vector3"},"_type":"UnityEngine.Vector3","key":"Direction","label":"Raycast
      Direction","summary":null,"hideLabel":false},{"hasDefaultValue":false,"defaultValue":{"$content":0.0,"$type":"System.Single"},"_type":"System.Single","key":"MaxDistance","label":"RaycastMaxDistance","summary":null,"hideLabel":false},{"hasDefaultValue":false,"defaultValue":null,"_type":"System.String","key":"Var
      Name","label":"Closer Name","summary":null,"hideLabel":false}],"valueOutputDefinitions":[],"title":null,"summary":null,"pan":{"x":-82.63367,"y":182.0},"zoom":1.0,"elements":[{"defaultValues":{},"position":{"x":-632.0,"y":55.0},"guid":"b233fdd7-1e5b-43f8-b83d-9414916abc05","$version":"A","$type":"Bolt.GraphInput","$id":"134"},{"defaultValues":{},"position":{"x":642.0,"y":40.0},"guid":"10531f6b-7fbb-4250-8bbf-abf5b99293f0","$version":"A","$type":"Bolt.GraphOutput","$id":"136"},{"specifyFallback":false,"kind":"Object","defaultValues":{"name":{"$content":"Top","$type":"System.String"},"object":null},"position":{"x":152.0,"y":110.0},"guid":"53e7e7ff-e7b7-48ee-bd50-873607d6e878","$version":"A","$type":"Bolt.GetVariable","$id":"138"},{"chainable":false,"member":{"name":"SetActive","parameterTypes":["System.Boolean"],"targetType":"UnityEngine.GameObject","targetTypeName":"UnityEngine.GameObject","$version":"A"},"defaultValues":{"target":null,"%value":{"$content":false,"$type":"System.Boolean"}},"position":{"x":336.0,"y":36.0},"guid":"5c8db47b-10f8-46f8-aabc-46030442e26b","$version":"A","$type":"Bolt.InvokeMember","$id":"140"},{"type":"UnityEngine.LayerMask","value":{"value":4096,"$type":"UnityEngine.LayerMask"},"defaultValues":{},"position":{"x":-389.0,"y":338.0},"guid":"3bcb17a7-d58f-47a1-8866-af6b8365c53b","$version":"A","$type":"Bolt.Literal","$id":"143"},{"defaultValues":{},"position":{"x":186.0,"y":222.0},"guid":"88ae8c67-0bee-40d5-9dd4-7e516b76d961","$version":"A","$type":"Bolt.Negate","$id":"145"},{"chainable":false,"member":{"name":"Raycast","parameterTypes":["UnityEngine.Vector3","UnityEngine.Vector3","System.Single","System.Int32"],"targetType":"UnityEngine.Physics","targetTypeName":"UnityEngine.Physics","$version":"A"},"defaultValues":{"%origin":{"x":0.0,"y":0.0,"z":0.0,"$type":"UnityEngine.Vector3"},"%direction":{"x":0.0,"y":1.0,"z":0.0,"$type":"UnityEngine.Vector3"},"%maxDistance":{"$content":25.0,"$type":"System.Single"},"%layerMask":{"$content":0,"$type":"System.Int32"}},"position":{"x":-114.0,"y":36.0},"guid":"d8632f42-dcb7-4aee-869b-2c754c914150","$version":"A","$type":"Bolt.InvokeMember","$id":"147"},{"member":{"name":"position","parameterTypes":null,"targetType":"UnityEngine.Transform","targetTypeName":"UnityEngine.Transform","$version":"A"},"defaultValues":{"target":null},"position":{"x":-399.0,"y":246.0},"guid":"2594bca8-83c5-4d7e-97b2-5aa0bd69f81f","$version":"A","$type":"Bolt.GetMember","$id":"150"},{"sourceUnit":{"$ref":"134"},"sourceKey":"In","destinationUnit":{"$ref":"147"},"destinationKey":"enter","guid":"27d36d14-368d-4cbd-9122-abdaeefb1819","$type":"Bolt.ControlConnection"},{"sourceUnit":{"$ref":"147"},"sourceKey":"exit","destinationUnit":{"$ref":"140"},"destinationKey":"enter","guid":"981c2bdf-10f2-439d-899f-95912dd3c8a6","$type":"Bolt.ControlConnection"},{"sourceUnit":{"$ref":"140"},"sourceKey":"exit","destinationUnit":{"$ref":"136"},"destinationKey":"Out","guid":"9c394e28-019b-4dca-92a8-279de3578454","$type":"Bolt.ControlConnection"},{"sourceUnit":{"$ref":"145"},"sourceKey":"output","destinationUnit":{"$ref":"140"},"destinationKey":"%value","guid":"88786a66-6c6d-407e-8ba8-46222f6cd302","$type":"Bolt.ValueConnection"},{"sourceUnit":{"$ref":"134"},"sourceKey":"Direction","destinationUnit":{"$ref":"147"},"destinationKey":"%direction","guid":"cfdfbf91-b607-4d0e-9fda-e81845389780","$type":"Bolt.ValueConnection"},{"sourceUnit":{"$ref":"143"},"sourceKey":"output","destinationUnit":{"$ref":"147"},"destinationKey":"%layerMask","guid":"a307e475-e6e8-4ade-80f3-346de7924bd2","$type":"Bolt.ValueConnection"},{"sourceUnit":{"$ref":"147"},"sourceKey":"result","destinationUnit":{"$ref":"145"},"destinationKey":"input","guid":"80dc68de-f7c0-408a-b006-5111f44ae69a","$type":"Bolt.ValueConnection"},{"sourceUnit":{"$ref":"134"},"sourceKey":"MaxDistance","destinationUnit":{"$ref":"147"},"destinationKey":"%maxDistance","guid":"bfdc2ebb-f70a-4d93-9592-14d91f4f4cec","$type":"Bolt.ValueConnection"},{"sourceUnit":{"$ref":"150"},"sourceKey":"value","destinationUnit":{"$ref":"147"},"destinationKey":"%origin","guid":"6427d229-69f3-4567-a847-2d25edd4711e","$type":"Bolt.ValueConnection"},{"sourceUnit":{"$ref":"138"},"sourceKey":"value","destinationUnit":{"$ref":"140"},"destinationKey":"target","guid":"c48f658d-10c0-4e9a-b07d-9cf9052b4b6c","$type":"Bolt.ValueConnection"},{"sourceUnit":{"$ref":"134"},"sourceKey":"Var
      Name","destinationUnit":{"$ref":"138"},"destinationKey":"name","guid":"e755c98b-9e6a-4d0f-8a88-49038534c22c","$type":"Bolt.ValueConnection"}],"$version":"A"}},"defaultValues":{},"position":{"x":868.0,"y":5.0},"guid":"4c60639b-50b3-4160-9891-eff693c273a8","$version":"A","$type":"Bolt.SuperUnit","$id":"119"},{"type":"System.String","value":{"$content":"Top","$type":"System.String"},"defaultValues":{},"position":{"x":649.0,"y":-85.0},"guid":"abf92e36-fe7d-4063-b4a4-753d59b8042f","$version":"A","$type":"Bolt.Literal","$id":"165"},{"type":"System.Single","value":{"$content":25.0,"$type":"System.Single"},"defaultValues":{},"position":{"x":545.0,"y":-85.0},"guid":"9d3f1404-c2b6-4aac-8417-4a03943faac8","$version":"A","$type":"Bolt.Literal","$id":"167"},{"type":"UnityEngine.Vector3","value":{"x":0.0,"y":1.0,"z":0.0,"$type":"UnityEngine.Vector3"},"defaultValues":{},"position":{"x":417.0,"y":-86.0},"guid":"f719bd4a-9f77-44fc-b1c2-db5d6d911fc3","$version":"A","$type":"Bolt.Literal","$id":"169"},{"nest":{"source":"Embed","macro":null,"embed":{"variables":{"collection":{"$content":[],"$version":"A"},"$version":"A"},"controlInputDefinitions":[{"key":"In","label":null,"summary":null,"hideLabel":false}],"controlOutputDefinitions":[{"key":"Out","label":null,"summary":null,"hideLabel":false}],"valueInputDefinitions":[{"hasDefaultValue":false,"defaultValue":{"x":0.0,"y":0.0,"z":0.0,"$type":"UnityEngine.Vector3"},"_type":"UnityEngine.Vector3","key":"Direction","label":"Raycast
      Direction","summary":null,"hideLabel":false},{"hasDefaultValue":false,"defaultValue":{"$content":0.0,"$type":"System.Single"},"_type":"System.Single","key":"MaxDistance","label":"RaycastMaxDistance","summary":null,"hideLabel":false},{"hasDefaultValue":false,"defaultValue":null,"_type":"System.String","key":"Var
      Name","label":"Closer Name","summary":null,"hideLabel":false}],"valueOutputDefinitions":[],"title":null,"summary":null,"pan":{"x":-82.63367,"y":182.0},"zoom":1.0,"elements":[{"defaultValues":{},"position":{"x":-632.0,"y":55.0},"guid":"b233fdd7-1e5b-43f8-b83d-9414916abc05","$version":"A","$type":"Bolt.GraphInput","$id":"186"},{"defaultValues":{},"position":{"x":642.0,"y":40.0},"guid":"10531f6b-7fbb-4250-8bbf-abf5b99293f0","$version":"A","$type":"Bolt.GraphOutput","$id":"188"},{"specifyFallback":false,"kind":"Object","defaultValues":{"name":{"$content":"Top","$type":"System.String"},"object":null},"position":{"x":152.0,"y":110.0},"guid":"53e7e7ff-e7b7-48ee-bd50-873607d6e878","$version":"A","$type":"Bolt.GetVariable","$id":"190"},{"chainable":false,"member":{"name":"SetActive","parameterTypes":["System.Boolean"],"targetType":"UnityEngine.GameObject","targetTypeName":"UnityEngine.GameObject","$version":"A"},"defaultValues":{"target":null,"%value":{"$content":false,"$type":"System.Boolean"}},"position":{"x":336.0,"y":36.0},"guid":"5c8db47b-10f8-46f8-aabc-46030442e26b","$version":"A","$type":"Bolt.InvokeMember","$id":"192"},{"type":"UnityEngine.LayerMask","value":{"value":4096,"$type":"UnityEngine.LayerMask"},"defaultValues":{},"position":{"x":-389.0,"y":338.0},"guid":"3bcb17a7-d58f-47a1-8866-af6b8365c53b","$version":"A","$type":"Bolt.Literal","$id":"195"},{"defaultValues":{},"position":{"x":186.0,"y":222.0},"guid":"88ae8c67-0bee-40d5-9dd4-7e516b76d961","$version":"A","$type":"Bolt.Negate","$id":"197"},{"chainable":false,"member":{"name":"Raycast","parameterTypes":["UnityEngine.Vector3","UnityEngine.Vector3","System.Single","System.Int32"],"targetType":"UnityEngine.Physics","targetTypeName":"UnityEngine.Physics","$version":"A"},"defaultValues":{"%origin":{"x":0.0,"y":0.0,"z":0.0,"$type":"UnityEngine.Vector3"},"%direction":{"x":0.0,"y":1.0,"z":0.0,"$type":"UnityEngine.Vector3"},"%maxDistance":{"$content":25.0,"$type":"System.Single"},"%layerMask":{"$content":0,"$type":"System.Int32"}},"position":{"x":-114.0,"y":36.0},"guid":"d8632f42-dcb7-4aee-869b-2c754c914150","$version":"A","$type":"Bolt.InvokeMember","$id":"199"},{"member":{"name":"position","parameterTypes":null,"targetType":"UnityEngine.Transform","targetTypeName":"UnityEngine.Transform","$version":"A"},"defaultValues":{"target":null},"position":{"x":-399.0,"y":246.0},"guid":"2594bca8-83c5-4d7e-97b2-5aa0bd69f81f","$version":"A","$type":"Bolt.GetMember","$id":"202"},{"sourceUnit":{"$ref":"192"},"sourceKey":"exit","destinationUnit":{"$ref":"188"},"destinationKey":"Out","guid":"9c394e28-019b-4dca-92a8-279de3578454","$type":"Bolt.ControlConnection"},{"sourceUnit":{"$ref":"186"},"sourceKey":"In","destinationUnit":{"$ref":"199"},"destinationKey":"enter","guid":"27d36d14-368d-4cbd-9122-abdaeefb1819","$type":"Bolt.ControlConnection"},{"sourceUnit":{"$ref":"199"},"sourceKey":"exit","destinationUnit":{"$ref":"192"},"destinationKey":"enter","guid":"981c2bdf-10f2-439d-899f-95912dd3c8a6","$type":"Bolt.ControlConnection"},{"sourceUnit":{"$ref":"186"},"sourceKey":"MaxDistance","destinationUnit":{"$ref":"199"},"destinationKey":"%maxDistance","guid":"bfdc2ebb-f70a-4d93-9592-14d91f4f4cec","$type":"Bolt.ValueConnection"},{"sourceUnit":{"$ref":"190"},"sourceKey":"value","destinationUnit":{"$ref":"192"},"destinationKey":"target","guid":"c48f658d-10c0-4e9a-b07d-9cf9052b4b6c","$type":"Bolt.ValueConnection"},{"sourceUnit":{"$ref":"199"},"sourceKey":"result","destinationUnit":{"$ref":"197"},"destinationKey":"input","guid":"80dc68de-f7c0-408a-b006-5111f44ae69a","$type":"Bolt.ValueConnection"},{"sourceUnit":{"$ref":"195"},"sourceKey":"output","destinationUnit":{"$ref":"199"},"destinationKey":"%layerMask","guid":"a307e475-e6e8-4ade-80f3-346de7924bd2","$type":"Bolt.ValueConnection"},{"sourceUnit":{"$ref":"186"},"sourceKey":"Direction","destinationUnit":{"$ref":"199"},"destinationKey":"%direction","guid":"cfdfbf91-b607-4d0e-9fda-e81845389780","$type":"Bolt.ValueConnection"},{"sourceUnit":{"$ref":"197"},"sourceKey":"output","destinationUnit":{"$ref":"192"},"destinationKey":"%value","guid":"88786a66-6c6d-407e-8ba8-46222f6cd302","$type":"Bolt.ValueConnection"},{"sourceUnit":{"$ref":"202"},"sourceKey":"value","destinationUnit":{"$ref":"199"},"destinationKey":"%origin","guid":"6427d229-69f3-4567-a847-2d25edd4711e","$type":"Bolt.ValueConnection"},{"sourceUnit":{"$ref":"186"},"sourceKey":"Var
      Name","destinationUnit":{"$ref":"190"},"destinationKey":"name","guid":"e755c98b-9e6a-4d0f-8a88-49038534c22c","$type":"Bolt.ValueConnection"}],"$version":"A"}},"defaultValues":{},"position":{"x":866.0,"y":-150.0},"guid":"4318d826-a983-4dcc-bd12-a19b9bc2a3f6","$version":"A","$type":"Bolt.SuperUnit","$id":"171"},{"coroutine":false,"defaultValues":{},"position":{"x":-204.0,"y":60.0},"guid":"0c4fd645-4f8d-4f6f-bbd3-bacabb832b9b","$version":"A","$type":"Bolt.Update"},{"type":"System.Single","value":{"$content":25.0,"$type":"System.Single"},"defaultValues":{},"position":{"x":547.0,"y":70.0},"guid":"6a852f41-220c-4d91-9b32-07a6de1c4b99","$version":"A","$type":"Bolt.Literal","$id":"219"},{"outputCount":4,"defaultValues":{},"position":{"x":8.0,"y":-149.0},"guid":"5ef64be5-2c77-478f-9fca-1b72d7e6785c","$version":"A","$type":"Bolt.Sequence","$id":"221"},{"defaultValues":{},"position":{"x":968.0,"y":626.0},"guid":"f055ed73-4b33-4ca6-a99d-4f121dba3467","$version":"A","$type":"Bolt.Branch"},{"sourceUnit":{"$ref":"221"},"sourceKey":"3","destinationUnit":{"$ref":"15"},"destinationKey":"In","guid":"4356d739-601f-42d4-899e-1a6d373d2639","$type":"Bolt.ControlConnection"},{"sourceUnit":{"$ref":"221"},"sourceKey":"2","destinationUnit":{"$ref":"67"},"destinationKey":"In","guid":"083b0f97-ff43-4cf5-81c8-4a756447d35a","$type":"Bolt.ControlConnection"},{"sourceUnit":{"$ref":"221"},"sourceKey":"1","destinationUnit":{"$ref":"119"},"destinationKey":"In","guid":"959e2ad9-08bf-4296-9ff5-49e28c27f432","$type":"Bolt.ControlConnection"},{"sourceUnit":{"$ref":"9"},"sourceKey":"trigger","destinationUnit":{"$ref":"221"},"destinationKey":"enter","guid":"caddfcdc-e611-4008-9650-e5c784d37a17","$type":"Bolt.ControlConnection"},{"sourceUnit":{"$ref":"221"},"sourceKey":"0","destinationUnit":{"$ref":"171"},"destinationKey":"In","guid":"f9104e11-96b9-4915-b780-91ea53afa957","$type":"Bolt.ControlConnection"},{"sourceUnit":{"$ref":"169"},"sourceKey":"output","destinationUnit":{"$ref":"171"},"destinationKey":"Direction","guid":"379487d6-a78e-4384-a7a3-cc410c87ccd3","$type":"Bolt.ValueConnection"},{"sourceUnit":{"$ref":"167"},"sourceKey":"output","destinationUnit":{"$ref":"171"},"destinationKey":"MaxDistance","guid":"038611dd-3e2a-4d24-93d9-ab51174a3677","$type":"Bolt.ValueConnection"},{"sourceUnit":{"$ref":"165"},"sourceKey":"output","destinationUnit":{"$ref":"171"},"destinationKey":"Var
      Name","guid":"2553be31-b226-4d13-ab4b-945f5d61dc08","$type":"Bolt.ValueConnection"},{"sourceUnit":{"$ref":"65"},"sourceKey":"output","destinationUnit":{"$ref":"67"},"destinationKey":"Direction","guid":"534a66de-51fa-472f-884d-12005634a4b3","$type":"Bolt.ValueConnection"},{"sourceUnit":{"$ref":"113"},"sourceKey":"output","destinationUnit":{"$ref":"119"},"destinationKey":"Var
      Name","guid":"4eba97d6-3993-4dd7-bda8-b1a2781338f9","$type":"Bolt.ValueConnection"},{"sourceUnit":{"$ref":"219"},"sourceKey":"output","destinationUnit":{"$ref":"119"},"destinationKey":"MaxDistance","guid":"c068cbb7-33d0-4f2e-8b89-e592cded9c33","$type":"Bolt.ValueConnection"},{"sourceUnit":{"$ref":"117"},"sourceKey":"output","destinationUnit":{"$ref":"119"},"destinationKey":"Direction","guid":"66cd356b-f8b7-4760-a723-a0f5fd248bb8","$type":"Bolt.ValueConnection"},{"sourceUnit":{"$ref":"63"},"sourceKey":"output","destinationUnit":{"$ref":"67"},"destinationKey":"MaxDistance","guid":"1b3aca07-d16f-4954-936d-ad2cec28fd46","$type":"Bolt.ValueConnection"},{"sourceUnit":{"$ref":"61"},"sourceKey":"output","destinationUnit":{"$ref":"67"},"destinationKey":"Var
      Name","guid":"ba47f5ff-c3ea-4edf-9bd4-6617c7a17638","$type":"Bolt.ValueConnection"},{"sourceUnit":{"$ref":"13"},"sourceKey":"output","destinationUnit":{"$ref":"15"},"destinationKey":"Direction","guid":"dc37dbec-28a9-4fde-ad9b-1aea26353e85","$type":"Bolt.ValueConnection"},{"sourceUnit":{"$ref":"11"},"sourceKey":"output","destinationUnit":{"$ref":"15"},"destinationKey":"MaxDistance","guid":"a08ab2de-9e38-40f3-9fa6-b53f9ae5d21c","$type":"Bolt.ValueConnection"},{"sourceUnit":{"$ref":"115"},"sourceKey":"output","destinationUnit":{"$ref":"15"},"destinationKey":"Var
      Name","guid":"2b1f7b3d-6dd0-48c1-808b-c21fbce8c55c","$type":"Bolt.ValueConnection"}],"$version":"A"}}'
    _objectReferences: []
