%YAML 1.1
%TAG !u! tag:unity3d.com,2011:
--- !u!114 &11400000
MonoBehaviour:
  m_ObjectHideFlags: 0
  m_CorrespondingSourceObject: {fileID: 0}
  m_PrefabInstance: {fileID: 0}
  m_PrefabAsset: {fileID: 0}
  m_GameObject: {fileID: 0}
  m_Enabled: 1
  m_EditorHideFlags: 0
  m_Script: {fileID: -1893448595, guid: a040fb66244a7f54289914d98ea4ef7d, type: 3}
  m_Name: LabGenerator_coridors
  m_EditorClassIdentifier: 
  _data:
    _json: '{"graph":{"variables":{"collection":{"$content":[{"name":"NumberOfRooms","value":{"$content":0,"$type":"System.Int32"},"$version":"A"},{"name":"RoomPos","value":{"x":0.0,"y":0.0,"z":0.0,"$type":"UnityEngine.Vector3"},"$version":"A"},{"name":"SpawnPointIndex","value":{"$content":0,"$type":"System.Int32"},"$version":"A"},{"name":"SpawnPointName","value":{"$content":"Start","$type":"System.String"},"$version":"A"},{"name":"ArrayName","value":{"$content":"Room
      Start","$type":"System.String"},"$version":"A"},{"name":"Rooms","value":{"$content":true,"$type":"System.Boolean"},"$version":"A"},{"name":"Tries","value":{"$content":0,"$type":"System.Int32"},"$version":"A"}],"$version":"A"},"$version":"A"},"controlInputDefinitions":[],"controlOutputDefinitions":[],"valueInputDefinitions":[],"valueOutputDefinitions":[],"title":null,"summary":null,"pan":{"x":3545.897,"y":731.3627},"zoom":0.25,"elements":[{"coroutine":true,"defaultValues":{},"position":{"x":-2688.0,"y":-258.0},"guid":"2dc05103-aebd-41fe-8ac1-8628314b34a0","$version":"A","$type":"Bolt.Start","$id":"16"},{"type":"System.String","value":{"$content":"Coridors
      Hor","$type":"System.String"},"defaultValues":{},"position":{"x":-27.0,"y":1061.0},"guid":"29104690-93fe-4b37-ae18-c57311f73864","$version":"A","$type":"Bolt.Literal","$id":"18"},{"kind":"Graph","defaultValues":{"name":{"$content":"ArrayName","$type":"System.String"}},"position":{"x":-318.0,"y":-250.0},"guid":"f297cd08-d24e-47a4-b1e4-cb28b7ad5c8d","$version":"A","$type":"Bolt.SetVariable","$id":"20"},{"kind":"Graph","defaultValues":{"name":{"$content":"ArrayName","$type":"System.String"}},"position":{"x":-321.0,"y":-393.0},"guid":"905c9df9-be89-4f37-b110-6beba3ad7265","$version":"A","$type":"Bolt.SetVariable","$id":"22"},{"specifyFallback":false,"kind":"Object","defaultValues":{"name":{"$content":"NumberOfRoomsMax","$type":"System.String"},"object":null},"position":{"x":-2713.0,"y":165.0},"guid":"6a77fd0a-512f-4f91-b628-80d48d588e59","$version":"A","$type":"Bolt.GetVariable","$id":"24"},{"kind":"Graph","defaultValues":{"name":{"$content":"ArrayName","$type":"System.String"}},"position":{"x":146.0,"y":1017.0},"guid":"f654acc9-65ec-4072-91d7-ea18dbca3214","$version":"A","$type":"Bolt.SetVariable","$id":"26"},{"kind":"Graph","defaultValues":{"name":{"$content":"NumberOfRooms","$type":"System.String"}},"position":{"x":-1574.0,"y":-215.0},"guid":"43fbabc5-a013-4e2f-8ffc-123160d48721","$version":"A","$type":"Bolt.SetVariable","$id":"28"},{"chainable":false,"member":{"name":"Find","parameterTypes":["System.String"],"targetType":"UnityEngine.Transform","targetTypeName":"UnityEngine.Transform","$version":"A"},"defaultValues":{"target":null,"%n":{"$content":"SpawnPoints","$type":"System.String"}},"position":{"x":1393.0,"y":-93.0},"guid":"b3e49fe7-cfb6-491e-a4ab-ff9cd1d1905a","$version":"A","$type":"Bolt.InvokeMember","$id":"30"},{"specifyFallback":false,"kind":"Object","defaultValues":{"name":{"$content":"NumberOfRoomsMin","$type":"System.String"},"object":null},"position":{"x":-2716.0,"y":49.0},"guid":"da2c663e-8fb0-431c-89a8-ccebd551dbb4","$version":"A","$type":"Bolt.GetVariable","$id":"33"},{"defaultValues":{"seconds":{"$content":0.01,"$type":"System.Single"},"unscaledTime":{"$content":false,"$type":"System.Boolean"}},"position":{"x":940.0,"y":-211.0},"guid":"403620a0-a0a9-4a2f-9621-f941c6e43f43","$version":"A","$type":"Bolt.WaitForSecondsUnit","$id":"35"},{"chainable":false,"member":{"name":"Range","parameterTypes":["System.Int32","System.Int32"],"targetType":"UnityEngine.Random","targetTypeName":"UnityEngine.Random","$version":"A"},"defaultValues":{"%min":{"$content":0,"$type":"System.Int32"},"%max":{"$content":0,"$type":"System.Int32"}},"position":{"x":471.0,"y":74.0},"guid":"eacc7373-b84e-4381-9203-6f30f755b847","$version":"A","$type":"Bolt.InvokeMember","$id":"37"},{"kind":"Graph","defaultValues":{"name":{"$content":"ArrayName","$type":"System.String"}},"position":{"x":140.0,"y":732.0},"guid":"806c6844-9764-45c7-8ba3-3f9a2a235004","$version":"A","$type":"Bolt.SetVariable","$id":"40"},{"kind":"Graph","defaultValues":{"name":{"$content":"ArrayName","$type":"System.String"}},"position":{"x":-312.0,"y":35.0},"guid":"835f8ed6-96a4-4285-9725-041bf52c19a5","$version":"A","$type":"Bolt.SetVariable","$id":"42"},{"defaultValues":{},"position":{"x":3814.0,"y":-215.0},"guid":"9f128578-7792-49a3-96bc-a48eb78881a6","$version":"A","$type":"Bolt.Branch","$id":"44"},{"chainable":false,"member":{"name":"Instantiate","parameterTypes":["UnityEngine.Object","UnityEngine.Vector3","UnityEngine.Quaternion","UnityEngine.Transform"],"targetType":"UnityEngine.GameObject","targetTypeName":"UnityEngine.GameObject","$version":"A"},"defaultValues":{"%original":null,"%position":{"x":0.0,"y":0.0,"z":0.0,"$type":"UnityEngine.Vector3"},"%parent":null},"position":{"x":734.0,"y":-205.0},"guid":"9d68a63a-f3f9-4320-a5e3-90b39c84046a","$version":"A","$type":"Bolt.InvokeMember","$id":"46"},{"ignoreCase":false,"options":["Top","Down","Left","Right","Center"],"defaultValues":{},"position":{"x":-275.0,"y":743.0},"guid":"aab7ff85-cada-40fa-8436-51cfb773463d","$version":"A","$type":"Bolt.SwitchOnString","$id":"49"},{"specifyFallback":false,"kind":"Object","defaultValues":{"name":{"$content":"StartingRoom","$type":"System.String"},"object":null},"position":{"x":162.0,"y":-48.0},"guid":"b124a16b-9d5e-4915-9d6c-79498f262713","$version":"A","$type":"Bolt.GetVariable","$id":"52"},{"kind":"Object","defaultValues":{"name":{"$content":"SpawnPoint","$type":"System.String"},"object":null},"position":{"x":2871.0,"y":20.0},"guid":"ba499d5a-e9ee-4d17-a8b0-affd143d4db1","$version":"A","$type":"Bolt.SetVariable","$id":"54"},{"defaultValues":{"dividend":{"$content":1.0,"$type":"System.Single"},"divisor":{"$content":2.0,"$type":"System.Single"}},"position":{"x":-2107.0,"y":43.0},"guid":"5f6b8b5d-8811-4b66-b2fe-aa59b869bab1","$version":"A","$type":"Bolt.ScalarModulo","$id":"56"},{"type":"UnityEngine.Vector3","instance":true,"static":false,"defaultValues":{"target":{"x":0.0,"y":0.0,"z":0.0,"$type":"UnityEngine.Vector3"}},"position":{"x":3185.0,"y":186.0},"guid":"b748921e-3e19-4264-a794-37b2d267c7a4","$version":"A","$type":"Bolt.Expose","$id":"58"},{"specifyFallback":false,"kind":"Graph","defaultValues":{"name":{"$content":"ArrayName","$type":"System.String"}},"position":{"x":-39.0,"y":-49.0},"guid":"c8291c73-f1f7-4f66-a2ac-0c2f167279c8","$version":"A","$type":"Bolt.GetVariable","$id":"60"},{"kind":"Graph","defaultValues":{"name":{"$content":"SpawnPointIndex","$type":"System.String"}},"position":{"x":1916.0,"y":-96.0},"guid":"0562b4ec-85c3-4d85-a9c9-461f508a06ac","$version":"A","$type":"Bolt.SetVariable","$id":"62"},{"defaultValues":{"seconds":{"$content":0.1,"$type":"System.Single"},"unscaledTime":{"$content":false,"$type":"System.Boolean"}},"position":{"x":1641.0,"y":-291.0},"guid":"2c521a57-f029-4ae7-be49-54cf23936284","$version":"A","$type":"Bolt.WaitForSecondsUnit","$id":"64"},{"kind":"Graph","defaultValues":{"name":{"$content":"NumberOfRooms","$type":"System.String"}},"position":{"x":-1571.0,"y":-75.0},"guid":"5b1e3069-30c6-4404-b1d7-f652d520ad77","$version":"A","$type":"Bolt.SetVariable","$id":"66"},{"defaultValues":{},"position":{"x":521.0,"y":409.0},"guid":"4710b15e-8336-482f-8fbc-a0848867ce04","$version":"A","$type":"Bolt.Self","$id":"68"},{"defaultValues":{},"position":{"x":-1753.0,"y":-95.0},"guid":"60af2bac-ad57-4a11-b044-3843d33eb6e1","$version":"A","$type":"Bolt.Branch","$id":"70"},{"kind":"Graph","defaultValues":{"name":{"$content":"SpawnPointName","$type":"System.String"}},"position":{"x":2647.0,"y":19.0},"guid":"7e8f9c25-ace7-49a1-8f12-4c2013842d4c","$version":"A","$type":"Bolt.SetVariable","$id":"72"},{"kind":"Graph","defaultValues":{"name":{"$content":"ArrayName","$type":"System.String"}},"position":{"x":-317.0,"y":-106.0},"guid":"e4572590-7f0b-47a8-80b2-03d83f18b072","$version":"A","$type":"Bolt.SetVariable","$id":"74"},{"member":{"name":"name","parameterTypes":null,"targetType":"UnityEngine.Object","targetTypeName":"UnityEngine.Object","$version":"A"},"defaultValues":{"target":null},"position":{"x":2402.0,"y":147.0},"guid":"b3c4a89f-db39-4a94-8cb9-4d9d769de405","$version":"A","$type":"Bolt.GetMember","$id":"76"},{"defaultValues":{"firstIndex":{"$content":0,"$type":"System.Int32"},"lastIndex":{"$content":10,"$type":"System.Int32"},"step":{"$content":1,"$type":"System.Int32"}},"position":{"x":-1336.0,"y":-73.0},"guid":"afa37271-71ec-40f8-bf12-f3bfff356fba","$version":"A","$type":"Bolt.For","$id":"79"},{"type":"System.String","value":{"$content":"Rooms
      Right","$type":"System.String"},"defaultValues":{},"position":{"x":-490.0,"y":-62.0},"guid":"5c5a233d-9b69-43d5-84eb-b133198b18b3","$version":"A","$type":"Bolt.Literal","$id":"81"},{"type":"UnityEngine.Quaternion","value":{"x":0.0,"y":0.0,"z":0.0,"w":0.0,"$type":"UnityEngine.Quaternion"},"defaultValues":{},"position":{"x":484.0,"y":313.0},"guid":"c89877d0-51c2-4808-8c18-4d5cca4213c5","$version":"A","$type":"Bolt.Literal","$id":"83"},{"defaultValues":{"index":{"$content":0,"$type":"System.Int32"}},"position":{"x":556.0,"y":-79.0},"guid":"c25f93fe-d9fb-43d7-9766-d4d2d106503b","$version":"A","$type":"Bolt.GetListItem","$id":"85"},{"type":"System.Int32","value":{"$content":0,"$type":"System.Int32"},"defaultValues":{},"position":{"x":-2081.0,"y":160.0},"guid":"98538643-1d14-48bf-bbfb-8498e4725614","$version":"A","$type":"Bolt.Literal","$id":"87"},{"type":"System.Boolean","value":{"$content":false,"$type":"System.Boolean"},"defaultValues":{},"position":{"x":4288.0,"y":-151.0},"guid":"8c977e81-be10-40f1-b5ea-e4b5b9d7dacc","$version":"A","$type":"Bolt.Literal","$id":"89"},{"type":"System.String","value":{"$content":"Rooms
      Down","$type":"System.String"},"defaultValues":{},"position":{"x":-494.0,"y":-349.0},"guid":"061db7a7-152a-4ebb-bd3d-d2dd0e1fc47e","$version":"A","$type":"Bolt.Literal","$id":"91"},{"specifyFallback":false,"kind":"Graph","defaultValues":{"name":{"$content":"RoomPos","$type":"System.String"}},"position":{"x":470.0,"y":211.0},"guid":"571fc5de-70f6-4c50-b50c-f965ae927108","$version":"A","$type":"Bolt.GetVariable","$id":"93"},{"specifyFallback":false,"kind":"Graph","defaultValues":{"name":{"$content":"NumberOfRooms","$type":"System.String"}},"position":{"x":-1575.0,"y":68.0},"guid":"1ca287b9-8598-4224-977f-be7d87e86f03","$version":"A","$type":"Bolt.GetVariable","$id":"95"},{"kind":"Graph","defaultValues":{"name":{"$content":"ArrayName","$type":"System.String"}},"position":{"x":-308.0,"y":374.0},"guid":"b4ff12b0-6c6c-4acd-9599-617afb70309c","$version":"A","$type":"Bolt.SetVariable","$id":"97"},{"kind":"Graph","defaultValues":{"name":{"$content":"Rooms","$type":"System.String"}},"position":{"x":4492.0,"y":57.0},"guid":"1611a8b3-3fac-4fcb-93e6-d30992e7a449","$version":"A","$type":"Bolt.SetVariable","$id":"99"},{"numeric":false,"defaultValues":{},"position":{"x":-1938.0,"y":43.0},"guid":"beab4567-d709-40d9-9f00-5585f1097e62","$version":"A","$type":"Bolt.Equal","$id":"101"},{"type":"UnityEngine.LayerMask","value":{"value":1847,"$type":"UnityEngine.LayerMask"},"defaultValues":{},"position":{"x":3272.0,"y":70.0},"guid":"8cb3a26f-13ee-4915-9e36-c3fc6fa52ee1","$version":"A","$type":"Bolt.Literal","$id":"103"},{"defaultValues":{},"position":{"x":4233.0,"y":-1.0},"guid":"9ed346e5-ee69-427e-a4dd-66ca07e64c0f","$version":"A","$type":"Bolt.Branch","$id":"105"},{"type":"System.String","value":{"$content":"Room
      Start","$type":"System.String"},"defaultValues":{},"position":{"x":-481.0,"y":418.0},"guid":"a4d0e51c-1c52-49d4-a16e-75ed5c3d7513","$version":"A","$type":"Bolt.Literal","$id":"107"},{"member":{"name":"childCount","parameterTypes":null,"targetType":"UnityEngine.Transform","targetTypeName":"UnityEngine.Transform","$version":"A"},"defaultValues":{"target":null},"position":{"x":1571.0,"y":43.0},"guid":"72b63b88-7c6a-4b23-9879-14fe9a92e125","$version":"A","$type":"Bolt.GetMember","$id":"109"},{"specifyFallback":false,"kind":"Graph","defaultValues":{"name":{"$content":"SpawnPointName","$type":"System.String"}},"position":{"x":-551.0,"y":778.0},"guid":"67f59d92-6b0b-4e37-b13c-09dfc4c93c6d","$version":"A","$type":"Bolt.GetVariable","$id":"112"},{"type":"System.String","value":{"$content":"Coridors
      Hor","$type":"System.String"},"defaultValues":{},"position":{"x":-32.0,"y":920.0},"guid":"64292ba5-4003-49eb-8091-8f1a690a4412","$version":"A","$type":"Bolt.Literal","$id":"114"},{"member":{"name":"activeSelf","parameterTypes":null,"targetType":"UnityEngine.GameObject","targetTypeName":"UnityEngine.GameObject","$version":"A"},"defaultValues":{"target":null},"position":{"x":2405.0,"y":34.0},"guid":"fdb4a96d-eb6f-4263-ae02-9d556c633236","$version":"A","$type":"Bolt.GetMember","$id":"116"},{"chainable":false,"member":{"name":"GetChild","parameterTypes":["System.Int32"],"targetType":"UnityEngine.Transform","targetTypeName":"UnityEngine.Transform","$version":"A"},"defaultValues":{"target":null,"%index":{"$content":0,"$type":"System.Int32"}},"position":{"x":2164.0,"y":-23.0},"guid":"1ae7134f-02b9-4aa4-b84f-4edec31e19ab","$version":"A","$type":"Bolt.InvokeMember","$id":"119"},{"chainable":false,"member":{"name":"Range","parameterTypes":["System.Int32","System.Int32"],"targetType":"UnityEngine.Random","targetTypeName":"UnityEngine.Random","$version":"A"},"defaultValues":{"%min":{"$content":0,"$type":"System.Int32"},"%max":{"$content":0,"$type":"System.Int32"}},"position":{"x":-2477.0,"y":-85.0},"guid":"9425c0db-6177-4202-b51f-891c4d70703a","$version":"A","$type":"Bolt.InvokeMember","$id":"122"},{"ignoreCase":false,"options":["Top","Down","Left","Right","Center"],"defaultValues":{},"position":{"x":-630.0,"y":159.0},"guid":"1fb20ad5-a992-4e90-bba0-17481fa4a510","$version":"A","$type":"Bolt.SwitchOnString","$id":"125"},{"kind":"Graph","defaultValues":{"name":{"$content":"ArrayName","$type":"System.String"}},"position":{"x":137.0,"y":589.0},"guid":"3d839908-30fd-40d8-b96b-706ab5726e28","$version":"A","$type":"Bolt.SetVariable","$id":"128"},{"defaultValues":{"b":{"$content":1.0,"$type":"System.Single"}},"position":{"x":-1780.0,"y":-206.0},"guid":"acfe7130-627f-4efc-99a2-2c3e053f0373","$version":"A","$type":"Bolt.ScalarAdd","$id":"130"},{"type":"System.String","value":{"$content":"Rooms
      Top","$type":"System.String"},"defaultValues":{},"position":{"x":-491.0,"y":-206.0},"guid":"0c3876b8-f3ec-45c6-8255-182b50b21246","$version":"A","$type":"Bolt.Literal","$id":"132"},{"kind":"Graph","defaultValues":{"name":{"$content":"ArrayName","$type":"System.String"}},"position":{"x":142.0,"y":874.0},"guid":"43b5482d-7b31-44e1-80af-5ee3cb9b66a5","$version":"A","$type":"Bolt.SetVariable","$id":"134"},{"member":{"name":"position","parameterTypes":null,"targetType":"UnityEngine.Transform","targetTypeName":"UnityEngine.Transform","$version":"A"},"defaultValues":{"target":null},"position":{"x":3038.0,"y":174.0},"guid":"c4e1f854-549f-40b5-8807-3cc244e63b99","$version":"A","$type":"Bolt.GetMember","$id":"136"},{"specifyFallback":false,"kind":"Graph","defaultValues":{"name":{"$content":"SpawnPointName","$type":"System.String"}},"position":{"x":-906.0,"y":194.0},"guid":"689e7f12-b19c-4193-9764-728f4dd58492","$version":"A","$type":"Bolt.GetVariable","$id":"139"},{"type":"System.Boolean","value":{"$content":true,"$type":"System.Boolean"},"defaultValues":{},"position":{"x":4283.0,"y":150.0},"guid":"590a8cb0-9769-4c2c-a1f4-d0fd1bf40bf7","$version":"A","$type":"Bolt.Literal","$id":"141"},{"type":"System.String","value":{"$content":"Coridors
      Vert","$type":"System.String"},"defaultValues":{},"position":{"x":-33.0,"y":776.0},"guid":"87d590c6-0032-4fda-84ca-dc8d8a78f66d","$version":"A","$type":"Bolt.Literal","$id":"143"},{"defaultValues":{},"position":{"x":2545.0,"y":-126.0},"guid":"09d21e79-b125-49a2-a50c-898de8215524","$version":"A","$type":"Bolt.Branch","$id":"145"},{"defaultValues":{},"position":{"x":-1092.0,"y":-52.0},"guid":"e2f1879a-d1f7-4898-8016-96e02fd49e40","$version":"A","$type":"Bolt.Branch","$id":"147"},{"kind":"Graph","defaultValues":{"name":{"$content":"Rooms","$type":"System.String"}},"position":{"x":4492.0,"y":-215.0},"guid":"549ad9d2-225b-482a-a363-db807dc07627","$version":"A","$type":"Bolt.SetVariable","$id":"149"},{"type":"System.String","value":{"$content":"Coridors
      Vert","$type":"System.String"},"defaultValues":{},"position":{"x":-36.0,"y":633.0},"guid":"399ab986-c0fd-4607-99c0-689716b329f8","$version":"A","$type":"Bolt.Literal","$id":"151"},{"specifyFallback":false,"kind":"Graph","defaultValues":{"name":{"$content":"Rooms","$type":"System.String"}},"position":{"x":-1327.0,"y":96.0},"guid":"6f1a70a9-0321-472b-b216-541f14000745","$version":"A","$type":"Bolt.GetVariable","$id":"153"},{"defaultValues":{},"position":{"x":309.0,"y":40.0},"guid":"dfed7b42-45cd-4a30-a076-3761f42067d6","$version":"A","$type":"Bolt.CountItems","$id":"155"},{"chainable":false,"member":{"name":"Raycast","parameterTypes":["UnityEngine.Vector3","UnityEngine.Vector3","System.Single","System.Int32"],"targetType":"UnityEngine.Physics","targetTypeName":"UnityEngine.Physics","$version":"A"},"defaultValues":{"%origin":{"x":0.0,"y":0.0,"z":0.0,"$type":"UnityEngine.Vector3"},"%direction":{"x":0.0,"y":0.0,"z":1.0,"$type":"UnityEngine.Vector3"},"%maxDistance":{"$content":5.0,"$type":"System.Single"},"%layerMask":{"$content":0,"$type":"System.Int32"}},"position":{"x":3516.0,"y":3.0},"guid":"50681d47-7c98-461d-9ecf-994073091e6c","$version":"A","$type":"Bolt.InvokeMember","$id":"157"},{"specifyFallback":false,"kind":"Graph","defaultValues":{"name":{"$content":"Rooms","$type":"System.String"}},"position":{"x":3991.0,"y":173.0},"guid":"6f733a21-e4aa-4421-8d3d-7258924e856a","$version":"A","$type":"Bolt.GetVariable","$id":"160"},{"chainable":false,"member":{"name":".ctor","parameterTypes":["System.Single","System.Single","System.Single"],"targetType":"UnityEngine.Vector3","targetTypeName":"UnityEngine.Vector3","$version":"A"},"defaultValues":{"%x":{"$content":0.0,"$type":"System.Single"},"%y":{"$content":0.0,"$type":"System.Single"},"%z":{"$content":-2.0,"$type":"System.Single"}},"position":{"x":3378.0,"y":205.0},"guid":"11c90081-fb7e-4ab3-b7cd-1b2a9d7643a3","$version":"A","$type":"Bolt.InvokeMember","$id":"162"},{"chainable":false,"member":{"name":"Range","parameterTypes":["System.Int32","System.Int32"],"targetType":"UnityEngine.Random","targetTypeName":"UnityEngine.Random","$version":"A"},"defaultValues":{"%min":{"$content":0,"$type":"System.Int32"},"%max":{"$content":0,"$type":"System.Int32"}},"position":{"x":1740.0,"y":-89.0},"guid":"422b88b9-42cc-4a20-b7ab-ad137c75437d","$version":"A","$type":"Bolt.InvokeMember","$id":"165"},{"type":"System.String","value":{"$content":"Rooms
      Left","$type":"System.String"},"defaultValues":{},"position":{"x":-485.0,"y":79.0},"guid":"8ebe0a7e-50c6-4046-9165-33074095948d","$version":"A","$type":"Bolt.Literal","$id":"168"},{"kind":"Graph","defaultValues":{"name":{"$content":"RoomPos","$type":"System.String"}},"position":{"x":3994.0,"y":-4.0},"guid":"83ba22a5-383b-49de-85f7-fb6b9a943ba6","$version":"A","$type":"Bolt.SetVariable","$id":"170"},{"defaultValues":{},"position":{"x":3912.0,"y":925.0},"guid":"20dc261f-70f1-4ac1-82f3-ec618249e5ca","$version":"A","$type":"Bolt.Branch"},{"sourceUnit":{"$ref":"134"},"sourceKey":"assigned","destinationUnit":{"$ref":"46"},"destinationKey":"enter","guid":"6a2acc42-84cc-47a7-8280-34999670cb57","$type":"Bolt.ControlConnection"},{"sourceUnit":{"$ref":"44"},"sourceKey":"ifFalse","destinationUnit":{"$ref":"170"},"destinationKey":"assign","guid":"e01f010c-a694-45a5-805f-7474f37429c9","$type":"Bolt.ControlConnection"},{"sourceUnit":{"$ref":"79"},"sourceKey":"body","destinationUnit":{"$ref":"147"},"destinationKey":"enter","guid":"3455c890-0531-471d-ba8a-88f805d90868","$type":"Bolt.ControlConnection"},{"sourceUnit":{"$ref":"125"},"sourceKey":"%Top","destinationUnit":{"$ref":"22"},"destinationKey":"assign","guid":"b05d51a5-d7b2-4b4f-a6f9-eeb03a334bb3","$type":"Bolt.ControlConnection"},{"sourceUnit":{"$ref":"128"},"sourceKey":"assigned","destinationUnit":{"$ref":"46"},"destinationKey":"enter","guid":"31b2d221-47c9-4b6f-b4bd-f3c1280a2d9a","$type":"Bolt.ControlConnection"},{"sourceUnit":{"$ref":"49"},"sourceKey":"%Right","destinationUnit":{"$ref":"26"},"destinationKey":"assign","guid":"0a0ca092-f277-4302-96b1-f95cfec91cdb","$type":"Bolt.ControlConnection"},{"sourceUnit":{"$ref":"105"},"sourceKey":"ifFalse","destinationUnit":{"$ref":"99"},"destinationKey":"assign","guid":"6f42bc1a-3731-4bcd-a8e5-36353fe5585d","$type":"Bolt.ControlConnection"},{"sourceUnit":{"$ref":"40"},"sourceKey":"assigned","destinationUnit":{"$ref":"46"},"destinationKey":"enter","guid":"b4dc974d-569c-47fe-9a1a-226063c09187","$type":"Bolt.ControlConnection"},{"sourceUnit":{"$ref":"97"},"sourceKey":"assigned","destinationUnit":{"$ref":"46"},"destinationKey":"enter","guid":"21c992de-97e2-44ad-9749-a2b884351b60","$type":"Bolt.ControlConnection"},{"sourceUnit":{"$ref":"49"},"sourceKey":"%Down","destinationUnit":{"$ref":"40"},"destinationKey":"assign","guid":"62023ffe-435c-4c51-ae00-b2078ed504d4","$type":"Bolt.ControlConnection"},{"sourceUnit":{"$ref":"42"},"sourceKey":"assigned","destinationUnit":{"$ref":"46"},"destinationKey":"enter","guid":"b353f70a-1643-4c25-b092-642e93af73b4","$type":"Bolt.ControlConnection"},{"sourceUnit":{"$ref":"125"},"sourceKey":"%Center","destinationUnit":{"$ref":"97"},"destinationKey":"assign","guid":"bf5304d9-6659-4cce-b303-23cf089d529c","$type":"Bolt.ControlConnection"},{"sourceUnit":{"$ref":"26"},"sourceKey":"assigned","destinationUnit":{"$ref":"46"},"destinationKey":"enter","guid":"d8d84132-4024-4a8d-a7ae-5076d9b44722","$type":"Bolt.ControlConnection"},{"sourceUnit":{"$ref":"16"},"sourceKey":"trigger","destinationUnit":{"$ref":"122"},"destinationKey":"enter","guid":"b03359fc-2457-41be-a941-ead86d6b0f4f","$type":"Bolt.ControlConnection"},{"sourceUnit":{"$ref":"74"},"sourceKey":"assigned","destinationUnit":{"$ref":"46"},"destinationKey":"enter","guid":"c581351a-1be9-4c72-bb9a-d605b291816b","$type":"Bolt.ControlConnection"},{"sourceUnit":{"$ref":"22"},"sourceKey":"assigned","destinationUnit":{"$ref":"46"},"destinationKey":"enter","guid":"45e5a62d-2b8e-4cbc-8d09-0537127f80fd","$type":"Bolt.ControlConnection"},{"sourceUnit":{"$ref":"105"},"sourceKey":"ifTrue","destinationUnit":{"$ref":"149"},"destinationKey":"assign","guid":"d70bbba2-d30d-49d7-b7c4-3ff8b9817384","$type":"Bolt.ControlConnection"},{"sourceUnit":{"$ref":"165"},"sourceKey":"exit","destinationUnit":{"$ref":"62"},"destinationKey":"assign","guid":"51cdf1a9-2325-4e7b-ba74-f778b4f87128","$type":"Bolt.ControlConnection"},{"sourceUnit":{"$ref":"72"},"sourceKey":"assigned","destinationUnit":{"$ref":"54"},"destinationKey":"assign","guid":"ff622160-6a55-42fb-b177-e6dfbee18585","$type":"Bolt.ControlConnection"},{"sourceUnit":{"$ref":"145"},"sourceKey":"ifTrue","destinationUnit":{"$ref":"72"},"destinationKey":"assign","guid":"7b7b87f0-bda4-4ed6-a6a6-499ab19ae56a","$type":"Bolt.ControlConnection"},{"sourceUnit":{"$ref":"145"},"sourceKey":"ifFalse","destinationUnit":{"$ref":"64"},"destinationKey":"enter","guid":"ae09000d-7a1f-4118-afb7-dc325ad40c82","$type":"Bolt.ControlConnection"},{"sourceUnit":{"$ref":"66"},"sourceKey":"assigned","destinationUnit":{"$ref":"79"},"destinationKey":"enter","guid":"8d3052dd-db9c-44ec-9c3e-b06df7f8141e","$type":"Bolt.ControlConnection"},{"sourceUnit":{"$ref":"46"},"sourceKey":"exit","destinationUnit":{"$ref":"35"},"destinationKey":"enter","guid":"9946f98f-b519-4e0d-9318-b5541693438d","$type":"Bolt.ControlConnection"},{"sourceUnit":{"$ref":"28"},"sourceKey":"assigned","destinationUnit":{"$ref":"79"},"destinationKey":"enter","guid":"db8d7036-f629-470b-951e-941d16ea4cc5","$type":"Bolt.ControlConnection"},{"sourceUnit":{"$ref":"119"},"sourceKey":"exit","destinationUnit":{"$ref":"145"},"destinationKey":"enter","guid":"2476a065-c7c9-4501-962c-57b2caa77553","$type":"Bolt.ControlConnection"},{"sourceUnit":{"$ref":"64"},"sourceKey":"exit","destinationUnit":{"$ref":"165"},"destinationKey":"enter","guid":"dc131b92-048d-47f0-848c-2c4d78fd2bd4","$type":"Bolt.ControlConnection"},{"sourceUnit":{"$ref":"35"},"sourceKey":"exit","destinationUnit":{"$ref":"30"},"destinationKey":"enter","guid":"5574080d-fdfd-4660-a041-b19c57c619d4","$type":"Bolt.ControlConnection"},{"sourceUnit":{"$ref":"62"},"sourceKey":"assigned","destinationUnit":{"$ref":"119"},"destinationKey":"enter","guid":"9c0f59a8-192d-4dc6-aebf-f4428da719a7","$type":"Bolt.ControlConnection"},{"sourceUnit":{"$ref":"122"},"sourceKey":"exit","destinationUnit":{"$ref":"70"},"destinationKey":"enter","guid":"89dc3f49-c71e-4879-ab16-acee64aa10a4","$type":"Bolt.ControlConnection"},{"sourceUnit":{"$ref":"125"},"sourceKey":"default","destinationUnit":{"$ref":"97"},"destinationKey":"assign","guid":"d630d682-f36f-49f9-91ea-1240522ca13f","$type":"Bolt.ControlConnection"},{"sourceUnit":{"$ref":"125"},"sourceKey":"%Left","destinationUnit":{"$ref":"74"},"destinationKey":"assign","guid":"7563b3da-64dd-43b7-8c6e-00e8f0065586","$type":"Bolt.ControlConnection"},{"sourceUnit":{"$ref":"49"},"sourceKey":"%Top","destinationUnit":{"$ref":"128"},"destinationKey":"assign","guid":"b17338d0-35f6-4f81-8739-b91352777a9a","$type":"Bolt.ControlConnection"},{"sourceUnit":{"$ref":"147"},"sourceKey":"ifFalse","destinationUnit":{"$ref":"49"},"destinationKey":"enter","guid":"3ef6a04a-96d0-488e-8d20-12819cc97d58","$type":"Bolt.ControlConnection"},{"sourceUnit":{"$ref":"125"},"sourceKey":"%Right","destinationUnit":{"$ref":"42"},"destinationKey":"assign","guid":"94c90b2a-8558-46a8-a6ec-bb2cc5b4b2fa","$type":"Bolt.ControlConnection"},{"sourceUnit":{"$ref":"125"},"sourceKey":"%Down","destinationUnit":{"$ref":"20"},"destinationKey":"assign","guid":"772283c6-5215-4cdd-aa55-82a90b39db63","$type":"Bolt.ControlConnection"},{"sourceUnit":{"$ref":"20"},"sourceKey":"assigned","destinationUnit":{"$ref":"46"},"destinationKey":"enter","guid":"47dcdd49-0085-4b23-8213-09191e75064e","$type":"Bolt.ControlConnection"},{"sourceUnit":{"$ref":"30"},"sourceKey":"exit","destinationUnit":{"$ref":"165"},"destinationKey":"enter","guid":"f6b6b784-5812-4250-a418-010b50fef379","$type":"Bolt.ControlConnection"},{"sourceUnit":{"$ref":"147"},"sourceKey":"ifTrue","destinationUnit":{"$ref":"125"},"destinationKey":"enter","guid":"5f259192-c960-4ab9-a0e0-f0c6be0aa5e0","$type":"Bolt.ControlConnection"},{"sourceUnit":{"$ref":"49"},"sourceKey":"%Left","destinationUnit":{"$ref":"134"},"destinationKey":"assign","guid":"568511d6-8088-4625-bbf4-e4e0e628a073","$type":"Bolt.ControlConnection"},{"sourceUnit":{"$ref":"54"},"sourceKey":"assigned","destinationUnit":{"$ref":"157"},"destinationKey":"enter","guid":"67b2bc54-002b-4662-a614-8bb2fc63bfc1","$type":"Bolt.ControlConnection"},{"sourceUnit":{"$ref":"157"},"sourceKey":"exit","destinationUnit":{"$ref":"44"},"destinationKey":"enter","guid":"682ef6c1-a127-480e-8d87-934017359684","$type":"Bolt.ControlConnection"},{"sourceUnit":{"$ref":"70"},"sourceKey":"ifTrue","destinationUnit":{"$ref":"66"},"destinationKey":"assign","guid":"371f2c30-e681-4917-a458-6079af92b14f","$type":"Bolt.ControlConnection"},{"sourceUnit":{"$ref":"70"},"sourceKey":"ifFalse","destinationUnit":{"$ref":"28"},"destinationKey":"assign","guid":"d1f36e4d-14ec-403b-aa4d-1e52b173d183","$type":"Bolt.ControlConnection"},{"sourceUnit":{"$ref":"44"},"sourceKey":"ifTrue","destinationUnit":{"$ref":"64"},"destinationKey":"enter","guid":"a7d33d1e-8eed-4d2c-ba24-e4841790b27e","$type":"Bolt.ControlConnection"},{"sourceUnit":{"$ref":"170"},"sourceKey":"assigned","destinationUnit":{"$ref":"105"},"destinationKey":"enter","guid":"6a2a6f48-6885-4f0b-ab64-ff467c453aa1","$type":"Bolt.ControlConnection"},{"sourceUnit":{"$ref":"76"},"sourceKey":"value","destinationUnit":{"$ref":"72"},"destinationKey":"input","guid":"bb17eeb3-e487-4741-84ee-ab54e92cde55","$type":"Bolt.ValueConnection"},{"sourceUnit":{"$ref":"136"},"sourceKey":"value","destinationUnit":{"$ref":"170"},"destinationKey":"input","guid":"bc325fcb-d6e3-46a7-9715-3da232b8cb3f","$type":"Bolt.ValueConnection"},{"sourceUnit":{"$ref":"136"},"sourceKey":"value","destinationUnit":{"$ref":"58"},"destinationKey":"target","guid":"91e6a79e-6172-4a57-bed6-2ce656539643","$type":"Bolt.ValueConnection"},{"sourceUnit":{"$ref":"165"},"sourceKey":"result","destinationUnit":{"$ref":"62"},"destinationKey":"input","guid":"87502d16-a73d-4145-abb3-802b4dfe130b","$type":"Bolt.ValueConnection"},{"sourceUnit":{"$ref":"155"},"sourceKey":"count","destinationUnit":{"$ref":"37"},"destinationKey":"%max","guid":"2126f6b3-a51b-4924-9016-15e18077b05a","$type":"Bolt.ValueConnection"},{"sourceUnit":{"$ref":"168"},"sourceKey":"output","destinationUnit":{"$ref":"42"},"destinationKey":"input","guid":"6b7b70d0-7e60-4861-a4bb-6dcc4c967c90","$type":"Bolt.ValueConnection"},{"sourceUnit":{"$ref":"160"},"sourceKey":"value","destinationUnit":{"$ref":"105"},"destinationKey":"condition","guid":"8b09cfb1-ac8e-49d3-b521-c8162ecb4a93","$type":"Bolt.ValueConnection"},{"sourceUnit":{"$ref":"56"},"sourceKey":"remainder","destinationUnit":{"$ref":"101"},"destinationKey":"a","guid":"156108e4-d27f-4e3c-9721-5592caadd02a","$type":"Bolt.ValueConnection"},{"sourceUnit":{"$ref":"33"},"sourceKey":"value","destinationUnit":{"$ref":"122"},"destinationKey":"%min","guid":"613718f0-32d1-4a69-9258-35edf0590859","$type":"Bolt.ValueConnection"},{"sourceUnit":{"$ref":"58"},"sourceKey":"y","destinationUnit":{"$ref":"162"},"destinationKey":"%y","guid":"574db5a6-eaf3-48eb-b493-3cdca93bda13","$type":"Bolt.ValueConnection"},{"sourceUnit":{"$ref":"162"},"sourceKey":"result","destinationUnit":{"$ref":"157"},"destinationKey":"%origin","guid":"b8fe3969-df41-4321-b4ad-3a62cca9f4fc","$type":"Bolt.ValueConnection"},{"sourceUnit":{"$ref":"95"},"sourceKey":"value","destinationUnit":{"$ref":"79"},"destinationKey":"lastIndex","guid":"cfcbfa76-fec6-4a2a-9ee4-8b9c041d91d7","$type":"Bolt.ValueConnection"},{"sourceUnit":{"$ref":"91"},"sourceKey":"output","destinationUnit":{"$ref":"22"},"destinationKey":"input","guid":"02ebbbf0-229f-4798-9219-659dbe36270b","$type":"Bolt.ValueConnection"},{"sourceUnit":{"$ref":"116"},"sourceKey":"value","destinationUnit":{"$ref":"145"},"destinationKey":"condition","guid":"8d3d9e41-b445-46da-a1cc-6e2ffb9987a9","$type":"Bolt.ValueConnection"},{"sourceUnit":{"$ref":"132"},"sourceKey":"output","destinationUnit":{"$ref":"20"},"destinationKey":"input","guid":"c54ae1be-47e2-4cdd-a57a-7567bebcc1c5","$type":"Bolt.ValueConnection"},{"sourceUnit":{"$ref":"153"},"sourceKey":"value","destinationUnit":{"$ref":"147"},"destinationKey":"condition","guid":"b8054964-6734-4a38-b251-a43afe827ba4","$type":"Bolt.ValueConnection"},{"sourceUnit":{"$ref":"122"},"sourceKey":"result","destinationUnit":{"$ref":"130"},"destinationKey":"a","guid":"7bbc33d1-7810-415e-af9e-4782e002a9b5","$type":"Bolt.ValueConnection"},{"sourceUnit":{"$ref":"141"},"sourceKey":"output","destinationUnit":{"$ref":"99"},"destinationKey":"input","guid":"2a3cfd75-0942-4b24-a1d6-6bd932a444d7","$type":"Bolt.ValueConnection"},{"sourceUnit":{"$ref":"58"},"sourceKey":"x","destinationUnit":{"$ref":"162"},"destinationKey":"%x","guid":"1e2b0e64-1b1a-4443-b658-3d2b1c980833","$type":"Bolt.ValueConnection"},{"sourceUnit":{"$ref":"52"},"sourceKey":"value","destinationUnit":{"$ref":"155"},"destinationKey":"collection","guid":"dc787180-7ebb-42a9-a472-c541583d9d80","$type":"Bolt.ValueConnection"},{"sourceUnit":{"$ref":"119"},"sourceKey":"result","destinationUnit":{"$ref":"76"},"destinationKey":"target","guid":"414a9285-4598-4593-8592-1606adea7675","$type":"Bolt.ValueConnection"},{"sourceUnit":{"$ref":"93"},"sourceKey":"value","destinationUnit":{"$ref":"46"},"destinationKey":"%position","guid":"0ae53e82-c07c-4fb9-9fc6-7cab83659db0","$type":"Bolt.ValueConnection"},{"sourceUnit":{"$ref":"119"},"sourceKey":"result","destinationUnit":{"$ref":"116"},"destinationKey":"target","guid":"bb83ce4d-03d5-47a9-9a42-4dbd68b85652","$type":"Bolt.ValueConnection"},{"sourceUnit":{"$ref":"30"},"sourceKey":"result","destinationUnit":{"$ref":"109"},"destinationKey":"target","guid":"1129e300-5648-49eb-bae2-b52171999488","$type":"Bolt.ValueConnection"},{"sourceUnit":{"$ref":"46"},"sourceKey":"result","destinationUnit":{"$ref":"30"},"destinationKey":"target","guid":"10e289c3-0188-4468-b922-8de7b69b9352","$type":"Bolt.ValueConnection"},{"sourceUnit":{"$ref":"87"},"sourceKey":"output","destinationUnit":{"$ref":"101"},"destinationKey":"b","guid":"b91ba1a7-f657-4b6e-ba30-cbc9c2b8eb39","$type":"Bolt.ValueConnection"},{"sourceUnit":{"$ref":"114"},"sourceKey":"output","destinationUnit":{"$ref":"134"},"destinationKey":"input","guid":"656bf372-0a2e-4e7a-abce-4d93e1c6ec59","$type":"Bolt.ValueConnection"},{"sourceUnit":{"$ref":"122"},"sourceKey":"result","destinationUnit":{"$ref":"66"},"destinationKey":"input","guid":"9d32d263-2185-4766-9c83-8f3ca181bcdc","$type":"Bolt.ValueConnection"},{"sourceUnit":{"$ref":"62"},"sourceKey":"output","destinationUnit":{"$ref":"119"},"destinationKey":"%index","guid":"328954a5-3cd4-4a3e-a8a1-cc3a2af12e37","$type":"Bolt.ValueConnection"},{"sourceUnit":{"$ref":"89"},"sourceKey":"output","destinationUnit":{"$ref":"149"},"destinationKey":"input","guid":"6ff56dda-8d32-48b8-b324-4c7ece9528c6","$type":"Bolt.ValueConnection"},{"sourceUnit":{"$ref":"130"},"sourceKey":"sum","destinationUnit":{"$ref":"28"},"destinationKey":"input","guid":"577e7864-b7b2-443f-8298-5a47347068b0","$type":"Bolt.ValueConnection"},{"sourceUnit":{"$ref":"81"},"sourceKey":"output","destinationUnit":{"$ref":"74"},"destinationKey":"input","guid":"bb15a1f1-6946-4650-a78c-5e6fea23fe9a","$type":"Bolt.ValueConnection"},{"sourceUnit":{"$ref":"52"},"sourceKey":"value","destinationUnit":{"$ref":"85"},"destinationKey":"list","guid":"79304e41-5185-4cff-bfad-fe327db4a945","$type":"Bolt.ValueConnection"},{"sourceUnit":{"$ref":"37"},"sourceKey":"result","destinationUnit":{"$ref":"85"},"destinationKey":"index","guid":"8d670da0-ac01-4828-a1e3-da5afdd80d15","$type":"Bolt.ValueConnection"},{"sourceUnit":{"$ref":"24"},"sourceKey":"value","destinationUnit":{"$ref":"122"},"destinationKey":"%max","guid":"4c1e59fa-37af-4260-a755-7634f9cd1ae4","$type":"Bolt.ValueConnection"},{"sourceUnit":{"$ref":"151"},"sourceKey":"output","destinationUnit":{"$ref":"128"},"destinationKey":"input","guid":"313e2a62-43b8-4404-ad3c-a19b6d6655be","$type":"Bolt.ValueConnection"},{"sourceUnit":{"$ref":"60"},"sourceKey":"value","destinationUnit":{"$ref":"52"},"destinationKey":"name","guid":"cd3a93a9-d59d-4393-8252-0941428d3aed","$type":"Bolt.ValueConnection"},{"sourceUnit":{"$ref":"68"},"sourceKey":"self","destinationUnit":{"$ref":"46"},"destinationKey":"%parent","guid":"ab6fffc9-2e35-41bb-917c-907b89e4d0dc","$type":"Bolt.ValueConnection"},{"sourceUnit":{"$ref":"101"},"sourceKey":"equal","destinationUnit":{"$ref":"70"},"destinationKey":"condition","guid":"aed54cd9-38fb-4504-aa8c-2c140461ffa1","$type":"Bolt.ValueConnection"},{"sourceUnit":{"$ref":"109"},"sourceKey":"value","destinationUnit":{"$ref":"165"},"destinationKey":"%max","guid":"ea9f98e8-72f3-40e3-ae17-4eaef9e4bcbe","$type":"Bolt.ValueConnection"},{"sourceUnit":{"$ref":"85"},"sourceKey":"item","destinationUnit":{"$ref":"46"},"destinationKey":"%original","guid":"b017f44d-7bd6-4185-9e69-8fe2357fc802","$type":"Bolt.ValueConnection"},{"sourceUnit":{"$ref":"103"},"sourceKey":"output","destinationUnit":{"$ref":"157"},"destinationKey":"%layerMask","guid":"e110e54c-1b22-44ec-9137-dfcc15a33768","$type":"Bolt.ValueConnection"},{"sourceUnit":{"$ref":"18"},"sourceKey":"output","destinationUnit":{"$ref":"26"},"destinationKey":"input","guid":"d62a5f99-b637-4de2-86f7-b16482cff902","$type":"Bolt.ValueConnection"},{"sourceUnit":{"$ref":"83"},"sourceKey":"output","destinationUnit":{"$ref":"46"},"destinationKey":"%rotation","guid":"4a856522-7ed2-4cd9-ab5b-5155404cc3bb","$type":"Bolt.ValueConnection"},{"sourceUnit":{"$ref":"107"},"sourceKey":"output","destinationUnit":{"$ref":"97"},"destinationKey":"input","guid":"6594ddab-b626-4a2f-8b84-5db356b2a7a0","$type":"Bolt.ValueConnection"},{"sourceUnit":{"$ref":"122"},"sourceKey":"result","destinationUnit":{"$ref":"56"},"destinationKey":"dividend","guid":"8f6e439d-8f39-4f7f-bc12-904b63a3b4d0","$type":"Bolt.ValueConnection"},{"sourceUnit":{"$ref":"112"},"sourceKey":"value","destinationUnit":{"$ref":"49"},"destinationKey":"selector","guid":"2c276896-a3b7-4ba8-a764-c982331d3fde","$type":"Bolt.ValueConnection"},{"sourceUnit":{"$ref":"143"},"sourceKey":"output","destinationUnit":{"$ref":"40"},"destinationKey":"input","guid":"a5a5d04c-889e-4927-88e4-53940fe26136","$type":"Bolt.ValueConnection"},{"sourceUnit":{"$ref":"30"},"sourceKey":"result","destinationUnit":{"$ref":"119"},"destinationKey":"target","guid":"ee583656-0b7e-4baf-8c60-daaf7b235c2e","$type":"Bolt.ValueConnection"},{"sourceUnit":{"$ref":"139"},"sourceKey":"value","destinationUnit":{"$ref":"125"},"destinationKey":"selector","guid":"8f27f23c-7cac-4402-a6e9-575eb4b43cce","$type":"Bolt.ValueConnection"},{"sourceUnit":{"$ref":"54"},"sourceKey":"output","destinationUnit":{"$ref":"136"},"destinationKey":"target","guid":"77ba314a-b8ac-4c08-952a-f4e85b702ae7","$type":"Bolt.ValueConnection"},{"sourceUnit":{"$ref":"157"},"sourceKey":"result","destinationUnit":{"$ref":"44"},"destinationKey":"condition","guid":"c1011a39-cf3d-452f-9129-a41d228b280c","$type":"Bolt.ValueConnection"},{"sourceUnit":{"$ref":"119"},"sourceKey":"result","destinationUnit":{"$ref":"54"},"destinationKey":"input","guid":"0b1d514e-9f6b-4ab5-b0bd-c3794144173e","$type":"Bolt.ValueConnection"}],"$version":"A"}}'
    _objectReferences: []
