%YAML 1.1
%TAG !u! tag:unity3d.com,2011:
--- !u!114 &11400000
MonoBehaviour:
  m_ObjectHideFlags: 0
  m_CorrespondingSourceObject: {fileID: 0}
  m_PrefabInstance: {fileID: 0}
  m_PrefabAsset: {fileID: 0}
  m_GameObject: {fileID: 0}
  m_Enabled: 1
  m_EditorHideFlags: 0
  m_Script: {fileID: -1893448595, guid: a040fb66244a7f54289914d98ea4ef7d, type: 3}
  m_Name: Zombie_Chase
  m_EditorClassIdentifier: 
  _data:
    _json: '{"graph":{"variables":{"collection":{"$content":[],"$version":"A"},"$version":"A"},"controlInputDefinitions":[],"controlOutputDefinitions":[],"valueInputDefinitions":[],"valueOutputDefinitions":[],"title":null,"summary":null,"pan":{"x":713.425,"y":-161.38},"zoom":0.85,"elements":[{"coroutine":false,"defaultValues":{},"position":{"x":-476.0,"y":-245.0},"guid":"4fb316dd-4e60-49da-b204-296eff50900b","$version":"A","$type":"Bolt.Update","$id":"9"},{"chainable":false,"member":{"name":"velocity","parameterTypes":null,"targetType":"UnityEngine.Rigidbody2D","targetTypeName":"UnityEngine.Rigidbody2D","$version":"A"},"defaultValues":{"target":null,"input":{"x":0.0,"y":0.0,"$type":"UnityEngine.Vector2"}},"position":{"x":393.0,"y":-272.0},"guid":"9d5f24d3-72c9-4784-bc9f-18e2141f88a9","$version":"A","$type":"Bolt.SetMember","$id":"11"},{"chainable":false,"member":{"name":"Normalize","parameterTypes":["UnityEngine.Vector3"],"targetType":"UnityEngine.Vector3","targetTypeName":"UnityEngine.Vector3","$version":"A"},"defaultValues":{"%value":{"x":0.0,"y":0.0,"z":0.0,"$type":"UnityEngine.Vector3"}},"position":{"x":-5.0,"y":-490.0},"guid":"227fe335-4ab6-476a-b5a1-00344a37c0fd","$version":"A","$type":"Bolt.InvokeMember","$id":"14"},{"defaultValues":{"minuend":{"x":0.0,"y":0.0,"z":0.0,"$type":"UnityEngine.Vector3"},"subtrahend":{"x":0.0,"y":0.0,"z":0.0,"$type":"UnityEngine.Vector3"}},"position":{"x":-175.0,"y":-463.0},"guid":"c9947359-579d-40a6-a7af-c4d876fdf7d7","$version":"A","$type":"Bolt.Vector3Subtract","$id":"17"},{"chainable":false,"member":{"name":"Sign","parameterTypes":["System.Single"],"targetType":"UnityEngine.Mathf","targetTypeName":"UnityEngine.Mathf","$version":"A"},"defaultValues":{"%f":{"$content":0.0,"$type":"System.Single"}},"position":{"x":868.0,"y":-404.0},"guid":"d645cd75-34e9-475d-bdf0-59346a181811","$version":"A","$type":"Bolt.InvokeMember","$id":"19"},{"defaultValues":{},"position":{"x":198.0,"y":-410.0},"guid":"c54ce430-cf84-456a-82e5-5d7c9db3a943","$version":"A","$type":"Bolt.GenericMultiply","$id":"22"},{"member":{"name":"position","parameterTypes":null,"targetType":"UnityEngine.Transform","targetTypeName":"UnityEngine.Transform","$version":"A"},"defaultValues":{"target":null},"position":{"x":-371.0,"y":-394.0},"guid":"026f3892-7d62-4e49-bde7-09cefdc5a26c","$version":"A","$type":"Bolt.GetMember","$id":"24"},{"member":{"name":"position","parameterTypes":null,"targetType":"UnityEngine.Transform","targetTypeName":"UnityEngine.Transform","$version":"A"},"defaultValues":{"target":null},"position":{"x":-372.0,"y":-516.0},"guid":"c955d932-49bd-47da-9847-aed867af0d1b","$version":"A","$type":"Bolt.GetMember","$id":"27"},{"member":{"name":"x","parameterTypes":null,"targetType":"UnityEngine.Vector3","targetTypeName":"UnityEngine.Vector3","$version":"A"},"defaultValues":{"target":{"x":0.0,"y":0.0,"z":0.0,"$type":"UnityEngine.Vector3"}},"position":{"x":713.0,"y":-385.0},"guid":"a0a31574-5cc0-4671-9f9c-afce6542090e","$version":"A","$type":"Bolt.GetMember","$id":"30"},{"specifyFallback":false,"kind":"Application","defaultValues":{"name":{"$content":"Player","$type":"System.String"}},"position":{"x":-566.0,"y":-519.0},"guid":"99b0eb96-d7af-467e-900b-f3b54563ada4","$version":"A","$type":"Bolt.GetVariable","$id":"33"},{"specifyFallback":false,"kind":"Object","defaultValues":{"name":{"$content":"Speed","$type":"System.String"},"object":null},"position":{"x":-1.0,"y":-348.0},"guid":"32937516-d8c3-475c-a4f9-f8c841e4b632","$version":"A","$type":"Bolt.GetVariable","$id":"35"},{"chainable":false,"member":{"name":"localScale","parameterTypes":null,"targetType":"UnityEngine.Transform","targetTypeName":"UnityEngine.Transform","$version":"A"},"defaultValues":{"target":null,"input":{"x":0.0,"y":0.0,"z":0.0,"$type":"UnityEngine.Vector3"}},"position":{"x":1305.0,"y":-267.0},"guid":"2baa13ca-5246-411a-a862-7473b349fd1e","$version":"A","$type":"Bolt.SetMember","$id":"37"},{"chainable":false,"member":{"name":".ctor","parameterTypes":["System.Single","System.Single","System.Single"],"targetType":"UnityEngine.Vector3","targetTypeName":"UnityEngine.Vector3","$version":"A"},"defaultValues":{"%x":{"$content":0.0,"$type":"System.Single"},"%y":{"$content":1.0,"$type":"System.Single"},"%z":{"$content":1.0,"$type":"System.Single"}},"position":{"x":1042.0,"y":-403.0},"guid":"19d25002-d77e-4347-8aa5-3c252b24d74d","$version":"A","$type":"Bolt.InvokeMember","$id":"40"},{"defaultValues":{},"position":{"x":767.0,"y":13.0},"guid":"10a7beff-0bb1-4bc6-bba1-bc21d63b55ef","$version":"A","$type":"Bolt.Branch"},{"sourceUnit":{"$ref":"11"},"sourceKey":"assigned","destinationUnit":{"$ref":"37"},"destinationKey":"assign","guid":"9a9ce05b-8f4e-4a63-b6e7-f634c9b5ca5b","$type":"Bolt.ControlConnection"},{"sourceUnit":{"$ref":"9"},"sourceKey":"trigger","destinationUnit":{"$ref":"11"},"destinationKey":"assign","guid":"8c80b381-22c5-4359-abe2-fa87f133dd46","$type":"Bolt.ControlConnection"},{"sourceUnit":{"$ref":"22"},"sourceKey":"product","destinationUnit":{"$ref":"11"},"destinationKey":"input","guid":"8b0e6603-bc04-44ad-9abe-ddf3de9a05db","$type":"Bolt.ValueConnection"},{"sourceUnit":{"$ref":"33"},"sourceKey":"value","destinationUnit":{"$ref":"27"},"destinationKey":"target","guid":"b4cdf37a-36dd-4fe3-8f49-ffa90204b7a9","$type":"Bolt.ValueConnection"},{"sourceUnit":{"$ref":"19"},"sourceKey":"result","destinationUnit":{"$ref":"40"},"destinationKey":"%x","guid":"08e4e2e7-0a77-4ce5-b4c7-8e016fe86a0c","$type":"Bolt.ValueConnection"},{"sourceUnit":{"$ref":"14"},"sourceKey":"result","destinationUnit":{"$ref":"22"},"destinationKey":"a","guid":"25bd0127-6adc-4f4e-9033-eafe0942b563","$type":"Bolt.ValueConnection"},{"sourceUnit":{"$ref":"35"},"sourceKey":"value","destinationUnit":{"$ref":"22"},"destinationKey":"b","guid":"740ac6c7-b3b0-433d-9520-51c1b351a86a","$type":"Bolt.ValueConnection"},{"sourceUnit":{"$ref":"30"},"sourceKey":"value","destinationUnit":{"$ref":"19"},"destinationKey":"%f","guid":"520f6dfc-3094-41b8-bd41-5222de897933","$type":"Bolt.ValueConnection"},{"sourceUnit":{"$ref":"24"},"sourceKey":"value","destinationUnit":{"$ref":"17"},"destinationKey":"subtrahend","guid":"c5b382d0-79fb-4cd8-8dc3-9cd8c26a3c0d","$type":"Bolt.ValueConnection"},{"sourceUnit":{"$ref":"27"},"sourceKey":"value","destinationUnit":{"$ref":"17"},"destinationKey":"minuend","guid":"eef9f0ad-9290-4f46-8eae-15380211d588","$type":"Bolt.ValueConnection"},{"sourceUnit":{"$ref":"22"},"sourceKey":"product","destinationUnit":{"$ref":"30"},"destinationKey":"target","guid":"e6e2858f-04a7-4f08-a78b-959b79305e15","$type":"Bolt.ValueConnection"},{"sourceUnit":{"$ref":"17"},"sourceKey":"difference","destinationUnit":{"$ref":"14"},"destinationKey":"%value","guid":"228be792-8258-4f5d-8545-7380eab6dd64","$type":"Bolt.ValueConnection"},{"sourceUnit":{"$ref":"40"},"sourceKey":"result","destinationUnit":{"$ref":"37"},"destinationKey":"input","guid":"2f75ce3f-7066-4306-a4bd-f98314c3e7d2","$type":"Bolt.ValueConnection"},{"position":{"xMin":-620.8824,"yMin":-573.2353,"xMax":590.1762,"yMax":-92.88239},"label":"Chase
      the Player","comment":null,"color":{"r":0.0,"g":0.0,"b":0.0,"a":1.0},"guid":"ebe38648-2ebc-43c3-b47e-24a22ceb3604","$version":"A","$type":"Ludiq.GraphGroup"},{"position":{"xMin":675.0,"yMin":-554.0,"xMax":1477.0,"yMax":-94.0},"label":"Flip","comment":null,"color":{"r":0.0,"g":0.0,"b":0.0,"a":1.0},"guid":"1cbbcb37-39a7-4375-a69e-1160d843fbbb","$version":"A","$type":"Ludiq.GraphGroup"}],"$version":"A"}}'
    _objectReferences: []
