%YAML 1.1
%TAG !u! tag:unity3d.com,2011:
--- !u!114 &11400000
MonoBehaviour:
  m_ObjectHideFlags: 0
  m_CorrespondingSourceObject: {fileID: 0}
  m_PrefabInstance: {fileID: 0}
  m_PrefabAsset: {fileID: 0}
  m_GameObject: {fileID: 0}
  m_Enabled: 1
  m_EditorHideFlags: 0
  m_Script: {fileID: -1893448595, guid: a040fb66244a7f54289914d98ea4ef7d, type: 3}
  m_Name: SuperSetTile
  m_EditorClassIdentifier: 
  _data:
    _json: '{"graph":{"variables":{"collection":{"$content":[],"$version":"A"},"$version":"A"},"controlInputDefinitions":[{"key":"in","label":null,"summary":null,"hideLabel":false}],"controlOutputDefinitions":[{"key":"Out","label":null,"summary":null,"hideLabel":false}],"valueInputDefinitions":[{"hasDefaultValue":true,"defaultValue":{"$content":0,"$type":"System.Int32"},"_type":"System.Int32","key":"X","label":null,"summary":null,"hideLabel":false},{"hasDefaultValue":true,"defaultValue":{"$content":0,"$type":"System.Int32"},"_type":"System.Int32","key":"Y","label":null,"summary":null,"hideLabel":false},{"hasDefaultValue":true,"defaultValue":{"$content":0,"$type":"System.Int32"},"_type":"System.Int32","key":"Index","label":null,"summary":null,"hideLabel":false}],"valueOutputDefinitions":[],"title":"Super
      Set Tile","summary":null,"pan":{"x":138.7809,"y":-159.4562},"zoom":1.0,"elements":[{"defaultValues":{},"position":{"x":-992.0,"y":-87.0},"guid":"e01a5bf0-4808-4dbb-bd57-304af6de2cfa","$version":"A","$type":"Bolt.GraphInput","$id":"14"},{"chainable":false,"member":{"name":"ToString","parameterTypes":[],"targetType":"System.Single","targetTypeName":"System.Single","$version":"A"},"defaultValues":{"target":{"$content":0.0,"$type":"System.Single"}},"position":{"x":114.0,"y":-259.0},"guid":"c07f66fb-5ce7-4be9-9eb8-a16f33c8b188","$version":"A","$type":"Bolt.InvokeMember","$id":"16"},{"defaultValues":{},"position":{"x":-85.0,"y":-157.0},"guid":"22f2fcf5-c165-413e-971b-60425fccd949","$version":"A","$type":"Bolt.Or","$id":"19"},{"specifyFallback":false,"kind":"Object","defaultValues":{"name":{"$content":"SizeY","$type":"System.String"},"object":null},"position":{"x":-724.0,"y":296.0},"guid":"da515fdf-d2ed-4740-bf04-6e505f0d794c","$version":"A","$type":"Bolt.GetVariable","$id":"21"},{"numeric":true,"defaultValues":{"b":{"$content":0.0,"$type":"System.Single"}},"position":{"x":-459.0,"y":187.0},"guid":"fe5cbabc-a28f-496f-94f1-158ee613705e","$version":"A","$type":"Bolt.GreaterOrEqual","$id":"23"},{"defaultValues":{},"position":{"x":-240.0,"y":58.0},"guid":"b6bfab5a-dae7-4e91-ad38-17cfc5bbeaab","$version":"A","$type":"Bolt.Or","$id":"25"},{"numeric":true,"defaultValues":{"b":{"$content":0.0,"$type":"System.Single"}},"position":{"x":-458.0,"y":21.0},"guid":"d1b4cb22-5c07-4ff8-b84a-d9e7f848aa94","$version":"A","$type":"Bolt.Less","$id":"27"},{"chainable":false,"member":{"name":"ToString","parameterTypes":[],"targetType":"System.Single","targetTypeName":"System.Single","$version":"A"},"defaultValues":{"target":{"$content":0.0,"$type":"System.Single"}},"position":{"x":111.0,"y":-444.0},"guid":"555e344f-eeeb-4ef1-a75e-2968684c9d8d","$version":"A","$type":"Bolt.InvokeMember","$id":"29"},{"numeric":true,"defaultValues":{"b":{"$content":0.0,"$type":"System.Single"}},"position":{"x":-473.0,"y":-193.0},"guid":"b8206ea7-a1e7-4903-9aca-9792d7c25069","$version":"A","$type":"Bolt.GreaterOrEqual","$id":"32"},{"defaultValues":{},"position":{"x":-232.0,"y":-235.0},"guid":"425988cc-2548-4e49-9748-c86eace348cf","$version":"A","$type":"Bolt.Or","$id":"34"},{"numeric":true,"defaultValues":{"b":{"$content":0.0,"$type":"System.Single"}},"position":{"x":-475.0,"y":-341.0},"guid":"bec8b17c-ece0-4a7e-82d0-a9fd8dfd0e72","$version":"A","$type":"Bolt.Less","$id":"36"},{"defaultValues":{},"position":{"x":76.0,"y":-88.0},"guid":"56252899-9ae5-4a15-89fa-97932cb360d0","$version":"A","$type":"Bolt.Branch","$id":"38"},{"chainable":false,"member":{"name":"Log","parameterTypes":["System.Object"],"targetType":"UnityEngine.Debug","targetTypeName":"UnityEngine.Debug","$version":"A"},"defaultValues":{},"position":{"x":657.0,"y":-260.0},"guid":"60eafe88-ee3e-4ffb-b84c-9a243002b982","$version":"A","$type":"Bolt.InvokeMember","$id":"40"},{"defaultValues":{"index":{"$content":0,"$type":"System.Int32"}},"position":{"x":530.0,"y":34.0},"guid":"8265f6e4-b78b-4b16-b589-a9cad87f32fd","$version":"A","$type":"Bolt.SetListItem","$id":"43"},{"specifyFallback":false,"kind":"Object","defaultValues":{"name":{"$content":"Map","$type":"System.String"},"object":null},"position":{"x":32.0,"y":290.0},"guid":"d6711185-ee0e-487c-8b7f-128f83df3319","$version":"A","$type":"Bolt.GetVariable","$id":"45"},{"defaultValues":{"index":{"$content":0,"$type":"System.Int32"}},"position":{"x":281.0,"y":204.0},"guid":"12466027-ab00-4183-b647-aa8f8db4e543","$version":"A","$type":"Bolt.GetListItem","$id":"47"},{"defaultValues":{},"position":{"x":909.0,"y":-24.0},"guid":"6058bf31-fe15-4125-a4a9-15c57932a511","$version":"A","$type":"Bolt.GraphOutput","$id":"49"},{"specifyFallback":false,"kind":"Object","defaultValues":{"name":{"$content":"SizeX","$type":"System.String"},"object":null},"position":{"x":-744.0,"y":-364.0},"guid":"a768df90-6982-4c6e-b3a4-ba9694b56733","$version":"A","$type":"Bolt.GetVariable","$id":"51"},{"chainable":false,"member":{"name":"Concat","parameterTypes":["System.String","System.String","System.String","System.String"],"targetType":"System.String","targetTypeName":"System.String","$version":"A"},"defaultValues":{"%str0":{"$content":"Tile
      out of range: X=","$type":"System.String"},"%str1":{"$content":"","$type":"System.String"},"%str2":{"$content":"Y=","$type":"System.String"},"%str3":{"$content":"","$type":"System.String"}},"position":{"x":383.0,"y":-319.0},"guid":"e2fa4939-59ab-45ae-80c6-0b92210f4c79","$version":"A","$type":"Bolt.InvokeMember","$id":"53"},{"sourceUnit":{"$ref":"40"},"sourceKey":"exit","destinationUnit":{"$ref":"49"},"destinationKey":"Out","guid":"f1940b33-49dc-4126-b7a4-dcf4b111ac1f","$type":"Bolt.ControlConnection"},{"sourceUnit":{"$ref":"38"},"sourceKey":"ifFalse","destinationUnit":{"$ref":"43"},"destinationKey":"enter","guid":"2aa39185-977c-465b-ae7d-54183ca555f9","$type":"Bolt.ControlConnection"},{"sourceUnit":{"$ref":"14"},"sourceKey":"in","destinationUnit":{"$ref":"38"},"destinationKey":"enter","guid":"7b86ec78-9c29-4932-81f8-a16380f8092d","$type":"Bolt.ControlConnection"},{"sourceUnit":{"$ref":"43"},"sourceKey":"exit","destinationUnit":{"$ref":"49"},"destinationKey":"Out","guid":"45197ad6-c8af-4427-a8de-d03db4ba6d23","$type":"Bolt.ControlConnection"},{"sourceUnit":{"$ref":"53"},"sourceKey":"exit","destinationUnit":{"$ref":"40"},"destinationKey":"enter","guid":"c2ce010a-ee3a-4cdb-9df3-b6d88e44a05f","$type":"Bolt.ControlConnection"},{"sourceUnit":{"$ref":"38"},"sourceKey":"ifTrue","destinationUnit":{"$ref":"53"},"destinationKey":"enter","guid":"e0a62115-d065-4829-b6b5-38e3adc0fe3f","$type":"Bolt.ControlConnection"},{"sourceUnit":{"$ref":"21"},"sourceKey":"value","destinationUnit":{"$ref":"23"},"destinationKey":"b","guid":"c259dfb1-213d-46a9-93fc-8565f3dc3be1","$type":"Bolt.ValueConnection"},{"sourceUnit":{"$ref":"14"},"sourceKey":"Y","destinationUnit":{"$ref":"27"},"destinationKey":"a","guid":"e36eafce-ddca-4eeb-a4f4-66bdff395c6d","$type":"Bolt.ValueConnection"},{"sourceUnit":{"$ref":"34"},"sourceKey":"result","destinationUnit":{"$ref":"19"},"destinationKey":"a","guid":"d1925d7d-4c3e-484b-9d0e-acf93d78ee33","$type":"Bolt.ValueConnection"},{"sourceUnit":{"$ref":"25"},"sourceKey":"result","destinationUnit":{"$ref":"19"},"destinationKey":"b","guid":"359260f4-d767-450d-9eba-c07f924fe47c","$type":"Bolt.ValueConnection"},{"sourceUnit":{"$ref":"19"},"sourceKey":"result","destinationUnit":{"$ref":"38"},"destinationKey":"condition","guid":"e2f8d39c-1f2c-4372-8813-d685ee243cb5","$type":"Bolt.ValueConnection"},{"sourceUnit":{"$ref":"14"},"sourceKey":"X","destinationUnit":{"$ref":"29"},"destinationKey":"target","guid":"2e979a8b-4c47-46df-8b0a-251752ea5113","$type":"Bolt.ValueConnection"},{"sourceUnit":{"$ref":"14"},"sourceKey":"Y","destinationUnit":{"$ref":"16"},"destinationKey":"target","guid":"7a1d1639-75d6-4684-8c14-2ae21324974a","$type":"Bolt.ValueConnection"},{"sourceUnit":{"$ref":"23"},"sourceKey":"comparison","destinationUnit":{"$ref":"25"},"destinationKey":"b","guid":"07df3469-e7d2-4f2b-abfa-cd83f97822d7","$type":"Bolt.ValueConnection"},{"sourceUnit":{"$ref":"14"},"sourceKey":"Y","destinationUnit":{"$ref":"23"},"destinationKey":"a","guid":"e4e56dcb-bdda-4f1a-aa18-087d5a839692","$type":"Bolt.ValueConnection"},{"sourceUnit":{"$ref":"27"},"sourceKey":"comparison","destinationUnit":{"$ref":"25"},"destinationKey":"a","guid":"f60fb884-f86e-4671-909a-d37a9a6ac6da","$type":"Bolt.ValueConnection"},{"sourceUnit":{"$ref":"51"},"sourceKey":"value","destinationUnit":{"$ref":"32"},"destinationKey":"b","guid":"de433ee5-1d32-4cd6-bf66-5e62c7f4afb7","$type":"Bolt.ValueConnection"},{"sourceUnit":{"$ref":"14"},"sourceKey":"X","destinationUnit":{"$ref":"32"},"destinationKey":"a","guid":"e1d510ed-c0de-4210-bdfe-3a729dfcd702","$type":"Bolt.ValueConnection"},{"sourceUnit":{"$ref":"36"},"sourceKey":"comparison","destinationUnit":{"$ref":"34"},"destinationKey":"a","guid":"6a3ec25f-c938-4e9d-bf5b-3028a3b39a8c","$type":"Bolt.ValueConnection"},{"sourceUnit":{"$ref":"14"},"sourceKey":"X","destinationUnit":{"$ref":"36"},"destinationKey":"a","guid":"93d739d0-37f1-4a6a-a336-abbcb6db130e","$type":"Bolt.ValueConnection"},{"sourceUnit":{"$ref":"14"},"sourceKey":"Index","destinationUnit":{"$ref":"43"},"destinationKey":"item","guid":"2d59ae48-b696-44d7-a56b-8045e641154a","$type":"Bolt.ValueConnection"},{"sourceUnit":{"$ref":"14"},"sourceKey":"Y","destinationUnit":{"$ref":"43"},"destinationKey":"index","guid":"bb6b334a-21da-4fc9-80a5-95f8d08174bd","$type":"Bolt.ValueConnection"},{"sourceUnit":{"$ref":"14"},"sourceKey":"X","destinationUnit":{"$ref":"47"},"destinationKey":"index","guid":"8abbb501-af86-4e9d-a907-c29b6ecdc359","$type":"Bolt.ValueConnection"},{"sourceUnit":{"$ref":"47"},"sourceKey":"item","destinationUnit":{"$ref":"43"},"destinationKey":"list","guid":"32cc1f0f-f993-4ebe-8d4b-6d97c232e49d","$type":"Bolt.ValueConnection"},{"sourceUnit":{"$ref":"45"},"sourceKey":"value","destinationUnit":{"$ref":"47"},"destinationKey":"list","guid":"245e6c6d-d3c4-42e6-b490-cd85d648ee42","$type":"Bolt.ValueConnection"},{"sourceUnit":{"$ref":"32"},"sourceKey":"comparison","destinationUnit":{"$ref":"34"},"destinationKey":"b","guid":"3d27d062-1d5e-41a8-9744-cdd1853b5251","$type":"Bolt.ValueConnection"},{"sourceUnit":{"$ref":"29"},"sourceKey":"result","destinationUnit":{"$ref":"53"},"destinationKey":"%str1","guid":"87521a2c-4985-4675-bd02-fa5fb5ad5e47","$type":"Bolt.ValueConnection"},{"sourceUnit":{"$ref":"16"},"sourceKey":"result","destinationUnit":{"$ref":"53"},"destinationKey":"%str3","guid":"93be795e-0a16-4197-9a1f-c0d65bbf9a33","$type":"Bolt.ValueConnection"},{"sourceUnit":{"$ref":"53"},"sourceKey":"result","destinationUnit":{"$ref":"40"},"destinationKey":"%message","guid":"d8499a4f-757c-4cc3-a106-f96b70fb9dd4","$type":"Bolt.ValueConnection"}],"$version":"A"}}'
    _objectReferences: []
